Oszilloskop Messungen 19.4.23/WA000020.CSV

Record Length,9216,,Source,CH1,CH2
Sample Interval,0.0000000065104,,Second,Volt,Volt
Vertical Units,CH1:V CH2:V,,-0.00009215999,-0.08000,0.00800
Vertical Scale,CH1:2.00 CH2:0.20,,-0.00009213999,-0.16000,0.00
Vertical Offset,CH1:0.00 CH2:-0.01600,,-0.00009212000,-0.16000,-0.00800
Horizontal Units,s,,-0.00009209999,-0.16000,-0.00800
Horizontal Scale,0.0000050000,,-0.00009207999,-0.24000,-0.00800
Model Number,WaveAce202,,-0.00009205999,-0.24000,-0.01600
Serial Number,LCRY2104C00378,,-0.00009204000,-0.24000,-0.00800
Software Version,2.06.02.11,,-0.00009201999,-0.32000,-0.02400
,,,-0.00009199999,-0.32000,-0.02400
,,,-0.00009197999,-0.40000,-0.02400
,,,-0.00009195999,-0.40000,-0.02400
,,,-0.00009193999,-0.48000,-0.02400
,,,-0.00009191999,-0.48000,-0.03200
,,,-0.00009189999,-0.56000,-0.03200
,,,-0.00009187999,-0.56000,-0.04800
,,,-0.00009185999,-0.64000,-0.04800
,,,-0.00009183999,-0.64000,-0.04000
,,,-0.00009181999,-0.64000,-0.04800
,,,-0.00009179999,-0.72000,-0.04800
,,,-0.00009177999,-0.72000,-0.05600
,,,-0.00009175999,-0.72000,-0.05600
,,,-0.00009173999,-0.80000,-0.05600
,,,-0.00009171999,-0.80000,-0.05600
,,,-0.00009169999,-0.88000,-0.06400
,,,-0.00009167999,-0.88000,-0.05600
,,,-0.00009165999,-0.96000,-0.06400
,,,-0.00009163999,-0.96000,-0.06400
,,,-0.00009161999,-0.96000,-0.06400
,,,-0.00009159999,-0.96000,-0.07200
,,,-0.00009158000,-1.04000,-0.07200
,,,-0.00009155999,-1.12000,-0.07200
,,,-0.00009153999,-1.12000,-0.07200
,,,-0.00009152000,-1.12000,-0.08000
,,,-0.00009150000,-1.20000,-0.08800
,,,-0.00009147999,-1.20000,-0.08800
,,,-0.00009145999,-1.20000,-0.08800
,,,-0.00009144000,-1.28000,-0.08800
,,,-0.00009142000,-1.28000,-0.09600
,,,-0.00009140000,-1.28000,-0.10400
,,,-0.00009137999,-1.36000,-0.10400
,,,-0.00009135999,-1.36000,-0.11200
,,,-0.00009133999,-1.44000,-0.12000
,,,-0.00009132000,-1.44000,-0.10400
,,,-0.00009129999,-1.44000,-0.11200
,,,-0.00009127999,-1.52000,-0.11200
,,,-0.00009125999,-1.52000,-0.11200
,,,-0.00009124000,-1.60000,-0.11200
,,,-0.00009122000,-1.60000,-0.12000
,,,-0.00009119999,-1.68000,-0.12800
,,,-0.00009117999,-1.68000,-0.13600
,,,-0.00009115999,-1.60000,-0.12800
,,,-0.00009113999,-1.76000,-0.13600
,,,-0.00009111999,-1.76000,-0.14400
,,,-0.00009109999,-1.76000,-0.14400
,,,-0.00009107999,-1.84000,-0.14400
,,,-0.00009105999,-1.84000,-0.15200
,,,-0.00009104000,-1.84000,-0.14400
,,,-0.00009101999,-1.92000,-0.16000
,,,-0.00009099999,-1.92000,-0.16000
,,,-0.00009097999,-1.92000,-0.16000
,,,-0.00009095999,-2.00000,-0.16000
,,,-0.00009093999,-2.00000,-0.16000
,,,-0.00009091999,-2.08000,-0.16800
,,,-0.00009089999,-2.08000,-0.16800
,,,-0.00009087999,-2.16000,-0.17600
,,,-0.00009085999,-2.08000,-0.18400
,,,-0.00009083999,-2.16000,-0.17600
,,,-0.00009081999,-2.24000,-0.18400
,,,-0.00009079999,-2.24000,-0.18400
,,,-0.00009077999,-2.32000,-0.18400
,,,-0.00009075999,-2.32000,-0.18400
,,,-0.00009073999,-2.40000,-0.17600
,,,-0.00009071999,-2.40000,-0.18400
,,,-0.00009069999,-2.40000,-0.18400
,,,-0.00009067999,-2.40000,-0.18400
,,,-0.00009065999,-2.48000,-0.18400
,,,-0.00009063999,-2.48000,-0.19200
,,,-0.00009061999,-2.48000,-0.19200
,,,-0.00009059999,-2.48000,-0.19200
,,,-0.00009058000,-2.56000,-0.20800
,,,-0.00009055999,-2.56000,-0.20000
,,,-0.00009053999,-2.56000,-0.19200
,,,-0.00009052000,-2.64000,-0.20000
,,,-0.00009050000,-2.64000,-0.21600
,,,-0.00009047999,-2.72000,-0.20800
,,,-0.00009045999,-2.72000,-0.23200
,,,-0.00009044000,-2.72000,-0.20800
,,,-0.00009042000,-2.72000,-0.22400
,,,-0.00009040000,-2.80000,-0.22400
,,,-0.00009037999,-2.80000,-0.21600
,,,-0.00009035999,-2.80000,-0.22400
,,,-0.00009033999,-2.88000,-0.23200
,,,-0.00009032000,-2.88000,-0.23200
,,,-0.00009029999,-2.96000,-0.21600
,,,-0.00009027999,-2.96000,-0.22400
,,,-0.00009025999,-2.96000,-0.23200
,,,-0.00009024000,-2.96000,-0.23200
,,,-0.00009022000,-3.04000,-0.23200
,,,-0.00009019999,-3.04000,-0.24800
,,,-0.00009017999,-3.04000,-0.24000
,,,-0.00009015999,-3.12000,-0.24800
,,,-0.00009013999,-3.12000,-0.24800
,,,-0.00009011999,-3.12000,-0.24800
,,,-0.00009009999,-3.20000,-0.25600
,,,-0.00009007999,-3.20000,-0.25600
,,,-0.00009005999,-3.20000,-0.25600
,,,-0.00009004000,-3.20000,-0.25600
,,,-0.00009001999,-3.28000,-0.25600
,,,-0.00008999999,-3.28000,-0.26400
,,,-0.00008997999,-3.36000,-0.27200
,,,-0.00008995999,-3.28000,-0.27200
,,,-0.00008993999,-3.36000,-0.28000
,,,-0.00008991999,-3.36000,-0.28800
,,,-0.00008989999,-3.36000,-0.28800
,,,-0.00008987999,-3.36000,-0.28800
,,,-0.00008985999,-3.44000,-0.28800
,,,-0.00008983999,-3.44000,-0.28000
,,,-0.00008981999,-3.44000,-0.28800
,,,-0.00008979999,-3.52000,-0.28800
,,,-0.00008978000,-3.52000,-0.28800
,,,-0.00008975999,-3.52000,-0.28000
,,,-0.00008973999,-3.52000,-0.28000
,,,-0.00008972000,-3.52000,-0.28800
,,,-0.00008970000,-3.60000,-0.29600
,,,-0.00008968000,-3.60000,-0.29600
,,,-0.00008965999,-3.60000,-0.29600
,,,-0.00008964000,-3.68000,-0.29600
,,,-0.00008962000,-3.68000,-0.30400
,,,-0.00008960000,-3.68000,-0.30400
,,,-0.00008957999,-3.68000,-0.30400
,,,-0.00008955999,-3.68000,-0.30400
,,,-0.00008953999,-3.76000,-0.30400
,,,-0.00008952000,-3.76000,-0.31200
,,,-0.00008950000,-3.76000,-0.30400
,,,-0.00008947999,-3.76000,-0.30400
,,,-0.00008945999,-3.84000,-0.31200
,,,-0.00008944000,-3.84000,-0.30400
,,,-0.00008942000,-3.84000,-0.32000
,,,-0.00008939999,-3.84000,-0.31200
,,,-0.00008937999,-3.92000,-0.32000
,,,-0.00008935999,-3.92000,-0.32000
,,,-0.00008933999,-3.84000,-0.31200
,,,-0.00008932000,-3.92000,-0.31200
,,,-0.00008929999,-3.92000,-0.32000
,,,-0.00008927999,-3.92000,-0.32000
,,,-0.00008925999,-3.92000,-0.32000
,,,-0.00008924000,-4.00000,-0.32000
,,,-0.00008922000,-4.00000,-0.32800
,,,-0.00008919999,-4.00000,-0.32800
,,,-0.00008917999,-4.00000,-0.32800
,,,-0.00008915999,-4.00000,-0.32800
,,,-0.00008913999,-4.00000,-0.32800
,,,-0.00008911999,-4.08000,-0.32800
,,,-0.00008909999,-4.08000,-0.33600
,,,-0.00008907999,-4.08000,-0.34400
,,,-0.00008905999,-4.08000,-0.33600
,,,-0.00008904000,-4.08000,-0.32800
,,,-0.00008901999,-4.08000,-0.33600
,,,-0.00008899999,-4.08000,-0.33600
,,,-0.00008897999,-4.08000,-0.32800
,,,-0.00008895999,-4.08000,-0.34400
,,,-0.00008893999,-4.08000,-0.32800
,,,-0.00008891999,-4.08000,-0.34400
,,,-0.00008889999,-4.08000,-0.36000
,,,-0.00008887999,-4.08000,-0.34400
,,,-0.00008885999,-4.16000,-0.34400
,,,-0.00008883999,-4.08000,-0.33600
,,,-0.00008881999,-4.08000,-0.36000
,,,-0.00008879999,-4.16000,-0.36000
,,,-0.00008878000,-4.16000,-0.34400
,,,-0.00008875999,-4.16000,-0.34400
,,,-0.00008873999,-4.16000,-0.34400
,,,-0.00008872000,-4.24000,-0.35200
,,,-0.00008870000,-4.16000,-0.36000
,,,-0.00008868000,-4.16000,-0.35200
,,,-0.00008865999,-4.24000,-0.35200
,,,-0.00008864000,-4.24000,-0.35200
,,,-0.00008862000,-4.24000,-0.34400
,,,-0.00008860000,-4.24000,-0.34400
,,,-0.00008857999,-4.24000,-0.35200
,,,-0.00008855999,-4.24000,-0.35200
,,,-0.00008853999,-4.24000,-0.35200
,,,-0.00008852000,-4.24000,-0.36000
,,,-0.00008850000,-4.24000,-0.36000
,,,-0.00008847999,-4.32000,-0.36000
,,,-0.00008845999,-4.32000,-0.36000
,,,-0.00008844000,-4.24000,-0.36000
,,,-0.00008842000,-4.32000,-0.36800
,,,-0.00008839999,-4.32000,-0.36000
,,,-0.00008837999,-4.32000,-0.36000
,,,-0.00008835999,-4.32000,-0.36000
,,,-0.00008833999,-4.32000,-0.36000
,,,-0.00008832000,-4.32000,-0.37600
,,,-0.00008829999,-4.32000,-0.36800
,,,-0.00008827999,-4.32000,-0.36800
,,,-0.00008825999,-4.32000,-0.36800
,,,-0.00008824000,-4.32000,-0.36000
,,,-0.00008821999,-4.32000,-0.37600
,,,-0.00008819999,-4.32000,-0.36800
,,,-0.00008817999,-4.32000,-0.36800
,,,-0.00008815999,-4.32000,-0.36800
,,,-0.00008813999,-4.32000,-0.36800
,,,-0.00008811999,-4.32000,-0.37600
,,,-0.00008809999,-4.32000,-0.36000
,,,-0.00008807999,-4.32000,-0.36800
,,,-0.00008805999,-4.32000,-0.36000
,,,-0.00008803999,-4.32000,-0.36800
,,,-0.00008801999,-4.32000,-0.37600
,,,-0.00008799999,-4.32000,-0.37600
,,,-0.00008797999,-4.32000,-0.36800
,,,-0.00008795999,-4.32000,-0.36800
,,,-0.00008793999,-4.32000,-0.36000
,,,-0.00008791999,-4.32000,-0.36000
,,,-0.00008789999,-4.32000,-0.36800
,,,-0.00008787999,-4.32000,-0.36800
,,,-0.00008785999,-4.32000,-0.36800
,,,-0.00008783999,-4.32000,-0.36800
,,,-0.00008781999,-4.32000,-0.36800
,,,-0.00008779999,-4.32000,-0.36000
,,,-0.00008778000,-4.32000,-0.36800
,,,-0.00008775999,-4.32000,-0.36000
,,,-0.00008773999,-4.24000,-0.36800
,,,-0.00008772000,-4.32000,-0.36000
,,,-0.00008770000,-4.32000,-0.36000
,,,-0.00008767999,-4.24000,-0.35200
,,,-0.00008765999,-4.32000,-0.36800
,,,-0.00008764000,-4.32000,-0.35200
,,,-0.00008762000,-4.32000,-0.36000
,,,-0.00008760000,-4.32000,-0.36800
,,,-0.00008757999,-4.24000,-0.36000
,,,-0.00008755999,-4.24000,-0.36800
,,,-0.00008753999,-4.24000,-0.36000
,,,-0.00008752000,-4.24000,-0.36000
,,,-0.00008750000,-4.24000,-0.36800
,,,-0.00008747999,-4.24000,-0.36000
,,,-0.00008745999,-4.24000,-0.36000
,,,-0.00008744000,-4.16000,-0.35200
,,,-0.00008742000,-4.24000,-0.36000
,,,-0.00008739999,-4.16000,-0.36000
,,,-0.00008737999,-4.24000,-0.36000
,,,-0.00008735999,-4.16000,-0.36000
,,,-0.00008733999,-4.16000,-0.36000
,,,-0.00008732000,-4.16000,-0.36000
,,,-0.00008729999,-4.16000,-0.35200
,,,-0.00008727999,-4.16000,-0.35200
,,,-0.00008725999,-4.16000,-0.35200
,,,-0.00008724000,-4.16000,-0.34400
,,,-0.00008721999,-4.08000,-0.36000
,,,-0.00008719999,-4.08000,-0.35200
,,,-0.00008717999,-4.08000,-0.35200
,,,-0.00008715999,-4.08000,-0.35200
,,,-0.00008713999,-4.08000,-0.35200
,,,-0.00008711999,-4.08000,-0.35200
,,,-0.00008709999,-4.08000,-0.35200
,,,-0.00008707999,-4.08000,-0.34400
,,,-0.00008705999,-4.08000,-0.35200
,,,-0.00008703999,-4.08000,-0.33600
,,,-0.00008701999,-4.08000,-0.34400
,,,-0.00008699999,-4.08000,-0.33600
,,,-0.00008697999,-4.08000,-0.33600
,,,-0.00008695999,-4.08000,-0.33600
,,,-0.00008693999,-4.00000,-0.34400
,,,-0.00008691999,-4.08000,-0.33600
,,,-0.00008689999,-4.00000,-0.33600
,,,-0.00008687999,-4.00000,-0.33600
,,,-0.00008685999,-4.00000,-0.34400
,,,-0.00008683999,-3.92000,-0.34400
,,,-0.00008681999,-3.92000,-0.32800
,,,-0.00008679999,-3.92000,-0.32000
,,,-0.00008678000,-3.92000,-0.32800
,,,-0.00008675999,-3.92000,-0.32800
,,,-0.00008673999,-3.92000,-0.33600
,,,-0.00008672000,-3.92000,-0.32000
,,,-0.00008670000,-3.84000,-0.32000
,,,-0.00008667999,-3.92000,-0.32800
,,,-0.00008665999,-3.84000,-0.32800
,,,-0.00008664000,-3.84000,-0.32800
,,,-0.00008662000,-3.84000,-0.30400
,,,-0.00008660000,-3.76000,-0.30400
,,,-0.00008657999,-3.76000,-0.32000
,,,-0.00008655999,-3.76000,-0.30400
,,,-0.00008653999,-3.76000,-0.31200
,,,-0.00008652000,-3.76000,-0.30400
,,,-0.00008649999,-3.68000,-0.30400
,,,-0.00008647999,-3.76000,-0.30400
,,,-0.00008645999,-3.68000,-0.30400
,,,-0.00008644000,-3.68000,-0.31200
,,,-0.00008642000,-3.68000,-0.30400
,,,-0.00008639999,-3.60000,-0.30400
,,,-0.00008637999,-3.60000,-0.30400
,,,-0.00008635999,-3.52000,-0.30400
,,,-0.00008633999,-3.60000,-0.30400
,,,-0.00008631999,-3.52000,-0.29600
,,,-0.00008629999,-3.52000,-0.29600
,,,-0.00008627999,-3.44000,-0.29600
,,,-0.00008625999,-3.44000,-0.29600
,,,-0.00008624000,-3.44000,-0.30400
,,,-0.00008621999,-3.44000,-0.28800
,,,-0.00008619999,-3.44000,-0.28800
,,,-0.00008617999,-3.44000,-0.29600
,,,-0.00008615999,-3.36000,-0.28000
,,,-0.00008613999,-3.36000,-0.29600
,,,-0.00008611999,-3.28000,-0.28000
,,,-0.00008609999,-3.28000,-0.27200
,,,-0.00008607999,-3.28000,-0.28800
,,,-0.00008605999,-3.28000,-0.28000
,,,-0.00008603999,-3.28000,-0.27200
,,,-0.00008601999,-3.20000,-0.27200
,,,-0.00008599999,-3.20000,-0.28000
,,,-0.00008598000,-3.12000,-0.27200
,,,-0.00008595999,-3.20000,-0.27200
,,,-0.00008593999,-3.12000,-0.27200
,,,-0.00008592000,-3.12000,-0.26400
,,,-0.00008590000,-3.12000,-0.26400
,,,-0.00008588000,-3.04000,-0.25600
,,,-0.00008585999,-3.04000,-0.26400
,,,-0.00008584000,-3.04000,-0.25600
,,,-0.00008582000,-3.04000,-0.26400
,,,-0.00008580000,-2.96000,-0.25600
,,,-0.00008578000,-2.88000,-0.24000
,,,-0.00008575999,-2.88000,-0.24000
,,,-0.00008573999,-2.88000,-0.23200
,,,-0.00008572000,-2.88000,-0.24800
,,,-0.00008570000,-2.80000,-0.24000
,,,-0.00008567999,-2.80000,-0.24000
,,,-0.00008565999,-2.72000,-0.23200
,,,-0.00008564000,-2.72000,-0.24000
,,,-0.00008562000,-2.72000,-0.21600
,,,-0.00008560000,-2.72000,-0.23200
,,,-0.00008557999,-2.64000,-0.22400
,,,-0.00008555999,-2.64000,-0.21600
,,,-0.00008553999,-2.64000,-0.21600
,,,-0.00008552000,-2.64000,-0.21600
,,,-0.00008549999,-2.56000,-0.21600
,,,-0.00008547999,-2.48000,-0.21600
,,,-0.00008545999,-2.48000,-0.20800
,,,-0.00008544000,-2.48000,-0.22400
,,,-0.00008542000,-2.48000,-0.20000
,,,-0.00008539999,-2.40000,-0.20000
,,,-0.00008537999,-2.40000,-0.20000
,,,-0.00008535999,-2.40000,-0.19200
,,,-0.00008533999,-2.32000,-0.19200
,,,-0.00008531999,-2.32000,-0.19200
,,,-0.00008529999,-2.24000,-0.20000
,,,-0.00008527999,-2.24000,-0.19200
,,,-0.00008525999,-2.24000,-0.19200
,,,-0.00008524000,-2.16000,-0.18400
,,,-0.00008521999,-2.16000,-0.18400
,,,-0.00008519999,-2.16000,-0.18400
,,,-0.00008517999,-2.08000,-0.18400
,,,-0.00008515999,-2.08000,-0.17600
,,,-0.00008513999,-2.08000,-0.17600
,,,-0.00008511999,-2.00000,-0.17600
,,,-0.00008509999,-2.00000,-0.16800
,,,-0.00008507999,-2.00000,-0.18400
,,,-0.00008505999,-1.92000,-0.16800
,,,-0.00008503999,-1.92000,-0.18400
,,,-0.00008501999,-1.84000,-0.16800
,,,-0.00008499999,-1.84000,-0.16000
,,,-0.00008498000,-1.84000,-0.16800
,,,-0.00008495999,-1.84000,-0.16000
,,,-0.00008493999,-1.76000,-0.16000
,,,-0.00008492000,-1.68000,-0.14400
,,,-0.00008490000,-1.68000,-0.13600
,,,-0.00008488000,-1.68000,-0.14400
,,,-0.00008485999,-1.60000,-0.14400
,,,-0.00008484000,-1.60000,-0.12800
,,,-0.00008482000,-1.60000,-0.14400
,,,-0.00008480000,-1.52000,-0.13600
,,,-0.00008477999,-1.52000,-0.13600
,,,-0.00008475999,-1.44000,-0.12800
,,,-0.00008473999,-1.44000,-0.12800
,,,-0.00008472000,-1.44000,-0.12800
,,,-0.00008470000,-1.36000,-0.12800
,,,-0.00008467999,-1.36000,-0.12000
,,,-0.00008465999,-1.28000,-0.11200
,,,-0.00008464000,-1.20000,-0.12000
,,,-0.00008462000,-1.28000,-0.10400
,,,-0.00008459999,-1.20000,-0.10400
,,,-0.00008457999,-1.20000,-0.11200
,,,-0.00008455999,-1.12000,-0.09600
,,,-0.00008453999,-1.12000,-0.10400
,,,-0.00008452000,-1.12000,-0.09600
,,,-0.00008449999,-1.04000,-0.08800
,,,-0.00008447999,-1.04000,-0.08800
,,,-0.00008445999,-0.96000,-0.08000
,,,-0.00008444000,-0.96000,-0.08800
,,,-0.00008441999,-0.88000,-0.08000
,,,-0.00008439999,-0.88000,-0.08000
,,,-0.00008437999,-0.88000,-0.08000
,,,-0.00008435999,-0.80000,-0.08000
,,,-0.00008433999,-0.80000,-0.08000
,,,-0.00008431999,-0.80000,-0.07200
,,,-0.00008429999,-0.72000,-0.06400
,,,-0.00008427999,-0.72000,-0.07200
,,,-0.00008425999,-0.64000,-0.06400
,,,-0.00008423999,-0.64000,-0.06400
,,,-0.00008421999,-0.56000,-0.05600
,,,-0.00008419999,-0.56000,-0.05600
,,,-0.00008417999,-0.48000,-0.05600
,,,-0.00008415999,-0.48000,-0.05600
,,,-0.00008413999,-0.40000,-0.04800
,,,-0.00008411999,-0.40000,-0.04800
,,,-0.00008409999,-0.40000,-0.04800
,,,-0.00008407999,-0.40000,-0.04000
,,,-0.00008405999,-0.32000,-0.03200
,,,-0.00008403999,-0.24000,-0.04000
,,,-0.00008401999,-0.24000,-0.02400
,,,-0.00008399999,-0.24000,-0.03200
,,,-0.00008398000,-0.16000,-0.02400
,,,-0.00008395999,-0.16000,-0.02400
,,,-0.00008393999,-0.08000,-0.01600
,,,-0.00008392000,-0.08000,-0.01600
,,,-0.00008390000,-0.08000,-0.01600
,,,-0.00008388000,-0.08000,-0.00800
,,,-0.00008385999,-0.08000,0.00
,,,-0.00008384000,0.00,0.00800
,,,-0.00008382000,0.00,0.00
,,,-0.00008380000,0.00,0.00
,,,-0.00008377999,0.08000,0.00
,,,-0.00008375999,0.08000,0.00800
,,,-0.00008373999,0.16000,0.00
,,,-0.00008372000,0.24000,0.02400
,,,-0.00008370000,0.24000,0.01600
,,,-0.00008367999,0.24000,0.00800
,,,-0.00008365999,0.24000,0.02400
,,,-0.00008364000,0.24000,0.02400
,,,-0.00008362000,0.32000,0.03200
,,,-0.00008359999,0.32000,0.03200
,,,-0.00008357999,0.40000,0.02400
,,,-0.00008355999,0.48000,0.04000
,,,-0.00008353999,0.48000,0.02400
,,,-0.00008352000,0.48000,0.04000
,,,-0.00008349999,0.56000,0.04800
,,,-0.00008347999,0.56000,0.03200
,,,-0.00008345999,0.64000,0.04000
,,,-0.00008344000,0.64000,0.04800
,,,-0.00008341999,0.64000,0.05600
,,,-0.00008339999,0.64000,0.05600
,,,-0.00008337999,0.72000,0.05600
,,,-0.00008335999,0.80000,0.05600
,,,-0.00008333999,0.80000,0.06400
,,,-0.00008331999,0.80000,0.06400
,,,-0.00008329999,0.88000,0.06400
,,,-0.00008327999,0.88000,0.06400
,,,-0.00008325999,0.96000,0.07200
,,,-0.00008323999,0.96000,0.07200
,,,-0.00008321999,0.96000,0.07200
,,,-0.00008319999,0.96000,0.07200
,,,-0.00008317999,1.04000,0.07200
,,,-0.00008315999,1.04000,0.08000
,,,-0.00008313999,1.04000,0.06400
,,,-0.00008311999,1.12000,0.10400
,,,-0.00008309999,1.12000,0.09600
,,,-0.00008307999,1.20000,0.08800
,,,-0.00008305999,1.20000,0.10400
,,,-0.00008303999,1.28000,0.08000
,,,-0.00008301999,1.28000,0.10400
,,,-0.00008299999,1.28000,0.11200
,,,-0.00008298000,1.28000,0.11200
,,,-0.00008295999,1.36000,0.11200
,,,-0.00008293999,1.44000,0.12000
,,,-0.00008292000,1.44000,0.12000
,,,-0.00008290000,1.44000,0.12000
,,,-0.00008287999,1.52000,0.12800
,,,-0.00008285999,1.52000,0.12800
,,,-0.00008284000,1.60000,0.13600
,,,-0.00008282000,1.60000,0.13600
,,,-0.00008280000,1.60000,0.13600
,,,-0.00008277999,1.68000,0.14400
,,,-0.00008275999,1.68000,0.13600
,,,-0.00008273999,1.68000,0.14400
,,,-0.00008272000,1.76000,0.14400
,,,-0.00008269999,1.76000,0.14400
,,,-0.00008267999,1.76000,0.15200
,,,-0.00008265999,1.84000,0.15200
,,,-0.00008264000,1.84000,0.16800
,,,-0.00008262000,1.84000,0.15200
,,,-0.00008259999,1.84000,0.15200
,,,-0.00008257999,1.92000,0.16000
,,,-0.00008255999,2.00000,0.16000
,,,-0.00008253999,2.00000,0.16800
,,,-0.00008251999,2.00000,0.16800
,,,-0.00008249999,2.00000,0.17600
,,,-0.00008247999,2.00000,0.17600
,,,-0.00008245999,2.08000,0.18400
,,,-0.00008244000,2.08000,0.17600
,,,-0.00008241999,2.16000,0.19200
,,,-0.00008239999,2.16000,0.18400
,,,-0.00008237999,2.24000,0.19200
,,,-0.00008235999,2.24000,0.19200
,,,-0.00008233999,2.24000,0.19200
,,,-0.00008231999,2.24000,0.19200
,,,-0.00008229999,2.32000,0.19200
,,,-0.00008227999,2.32000,0.20000
,,,-0.00008225999,2.32000,0.19200
,,,-0.00008223999,2.40000,0.20000
,,,-0.00008221999,2.40000,0.20000
,,,-0.00008219999,2.40000,0.20000
,,,-0.00008218000,2.48000,0.20800
,,,-0.00008216000,2.48000,0.20800
,,,-0.00008213999,2.48000,0.20800
,,,-0.00008212000,2.56000,0.21600
,,,-0.00008210000,2.56000,0.21600
,,,-0.00008208000,2.56000,0.20000
,,,-0.00008205999,2.64000,0.23200
,,,-0.00008204000,2.72000,0.24000
,,,-0.00008202000,2.64000,0.22400
,,,-0.00008200000,2.64000,0.22400
,,,-0.00008198000,2.72000,0.23200
,,,-0.00008195999,2.72000,0.23200
,,,-0.00008193999,2.80000,0.24000
,,,-0.00008192000,2.80000,0.23200
,,,-0.00008190000,2.80000,0.22400
,,,-0.00008187999,2.88000,0.24000
,,,-0.00008185999,2.88000,0.24800
,,,-0.00008184000,2.88000,0.24000
,,,-0.00008182000,2.88000,0.24000
,,,-0.00008180000,2.88000,0.24800
,,,-0.00008177999,2.96000,0.24800
,,,-0.00008175999,2.96000,0.25600
,,,-0.00008173999,2.96000,0.24800
,,,-0.00008172000,2.96000,0.25600
,,,-0.00008169999,3.04000,0.25600
,,,-0.00008167999,3.04000,0.25600
,,,-0.00008165999,3.04000,0.27200
,,,-0.00008164000,3.12000,0.27200
,,,-0.00008162000,3.12000,0.26400
,,,-0.00008159999,3.12000,0.26400
,,,-0.00008157999,3.20000,0.26400
,,,-0.00008155999,3.20000,0.27200
,,,-0.00008153999,3.20000,0.28000
,,,-0.00008151999,3.28000,0.28000
,,,-0.00008149999,3.20000,0.28000
,,,-0.00008147999,3.28000,0.28800
,,,-0.00008145999,3.28000,0.28000
,,,-0.00008144000,3.36000,0.29600
,,,-0.00008141999,3.36000,0.28000
,,,-0.00008139999,3.36000,0.28800
,,,-0.00008137999,3.36000,0.28000
,,,-0.00008135999,3.44000,0.29600
,,,-0.00008133999,3.44000,0.29600
,,,-0.00008131999,3.44000,0.30400
,,,-0.00008129999,3.44000,0.30400
,,,-0.00008127999,3.52000,0.29600
,,,-0.00008125999,3.52000,0.30400
,,,-0.00008123999,3.52000,0.28000
,,,-0.00008121999,3.52000,0.31200
,,,-0.00008119999,3.52000,0.31200
,,,-0.00008118000,3.60000,0.30400
,,,-0.00008115999,3.60000,0.31200
,,,-0.00008113999,3.60000,0.30400
,,,-0.00008112000,3.60000,0.31200
,,,-0.00008110000,3.60000,0.31200
,,,-0.00008108000,3.68000,0.31200
