Oszilloskop Messungen 19.4.23/WA000015.CSV

Record Length,9216,,Source,CH1,CH2
Sample Interval,0.0000000325521,,Second,Volt,Volt
Vertical Units,CH1:V CH2:V,,-0.00018432000,3.84000,0.33600
Vertical Scale,CH1:2.00 CH2:0.20,,-0.00018428000,3.84000,0.34400
Vertical Offset,CH1:0.00 CH2:-0.01600,,-0.00018424002,3.84000,0.34400
Horizontal Units,s,,-0.00018420000,3.84000,0.33600
Horizontal Scale,0.0000250000,,-0.00018416000,3.84000,0.34400
Model Number,WaveAce202,,-0.00018412000,3.92000,0.34400
Serial Number,LCRY2104C00378,,-0.00018408002,3.84000,0.33600
Software Version,2.06.02.11,,-0.00018404000,3.84000,0.35200
,,,-0.00018400000,3.84000,0.34400
,,,-0.00018396000,3.92000,0.34400
,,,-0.00018392000,3.92000,0.34400
,,,-0.00018388000,3.92000,0.33600
,,,-0.00018383998,3.92000,0.34400
,,,-0.00018380000,3.92000,0.35200
,,,-0.00018376000,3.92000,0.34400
,,,-0.00018372000,3.92000,0.34400
,,,-0.00018368000,3.92000,0.34400
,,,-0.00018363998,3.92000,0.35200
,,,-0.00018360000,3.92000,0.34400
,,,-0.00018356000,3.92000,0.34400
,,,-0.00018352000,3.92000,0.36000
,,,-0.00018347998,3.92000,0.34400
,,,-0.00018344000,3.92000,0.35200
,,,-0.00018340000,3.92000,0.34400
,,,-0.00018336000,3.92000,0.35200
,,,-0.00018332000,3.92000,0.35200
,,,-0.00018327998,3.92000,0.35200
,,,-0.00018324000,3.92000,0.36000
,,,-0.00018320000,3.92000,0.34400
,,,-0.00018316000,3.92000,0.34400
,,,-0.00018311998,3.92000,0.35200
,,,-0.00018308000,3.92000,0.35200
,,,-0.00018304000,3.92000,0.36000
,,,-0.00018300000,3.92000,0.35200
,,,-0.00018296000,4.00000,0.36000
,,,-0.00018292000,4.00000,0.34400
,,,-0.00018288000,3.92000,0.34400
,,,-0.00018284000,3.92000,0.34400
,,,-0.00018280002,4.00000,0.34400
,,,-0.00018276000,4.00000,0.34400
,,,-0.00018272000,4.00000,0.34400
,,,-0.00018268000,4.00000,0.35200
,,,-0.00018264000,4.00000,0.35200
,,,-0.00018260002,4.00000,0.34400
,,,-0.00018256000,4.00000,0.34400
,,,-0.00018252000,4.00000,0.35200
,,,-0.00018248000,4.00000,0.36000
,,,-0.00018244002,4.00000,0.33600
,,,-0.00018240000,4.00000,0.34400
,,,-0.00018236000,4.00000,0.35200
,,,-0.00018232000,4.00000,0.34400
,,,-0.00018228000,4.00000,0.35200
,,,-0.00018224002,4.00000,0.35200
,,,-0.00018220000,4.00000,0.35200
,,,-0.00018216000,4.00000,0.35200
,,,-0.00018212000,4.00000,0.35200
,,,-0.00018208002,4.00000,0.35200
,,,-0.00018204000,4.00000,0.35200
,,,-0.00018200000,4.00000,0.35200
,,,-0.00018196000,4.00000,0.34400
,,,-0.00018192000,4.00000,0.34400
,,,-0.00018188000,4.08000,0.34400
,,,-0.00018183998,4.00000,0.34400
,,,-0.00018180000,4.08000,0.35200
,,,-0.00018176000,4.00000,0.35200
,,,-0.00018172000,4.00000,0.36000
,,,-0.00018168000,4.08000,0.36000
,,,-0.00018163998,4.08000,0.35200
,,,-0.00018160000,4.08000,0.35200
,,,-0.00018156000,4.08000,0.36800
,,,-0.00018152000,4.08000,0.36000
,,,-0.00018147998,4.08000,0.36000
,,,-0.00018144000,4.08000,0.36000
,,,-0.00018140000,4.08000,0.35200
,,,-0.00018136000,4.08000,0.36000
,,,-0.00018132000,4.08000,0.36800
,,,-0.00018127998,4.08000,0.35200
,,,-0.00018124000,4.08000,0.37600
,,,-0.00018120000,4.08000,0.36000
,,,-0.00018116000,4.08000,0.36000
,,,-0.00018111998,4.08000,0.35200
,,,-0.00018108000,4.08000,0.36000
,,,-0.00018104000,4.08000,0.36000
,,,-0.00018100000,4.08000,0.36000
,,,-0.00018096000,4.08000,0.36000
,,,-0.00018092000,4.08000,0.36000
,,,-0.00018088000,4.08000,0.35200
,,,-0.00018084000,4.08000,0.35200
,,,-0.00018080002,4.08000,0.36000
,,,-0.00018076000,4.08000,0.36000
,,,-0.00018072000,4.08000,0.36000
,,,-0.00018068000,4.08000,0.36800
,,,-0.00018064000,4.16000,0.36000
,,,-0.00018060000,4.08000,0.35200
,,,-0.00018056000,4.08000,0.36000
,,,-0.00018052000,4.08000,0.36000
,,,-0.00018048000,4.16000,0.36000
,,,-0.00018044002,4.08000,0.35200
,,,-0.00018040000,4.16000,0.35200
,,,-0.00018036000,4.08000,0.36000
,,,-0.00018032000,4.08000,0.36000
,,,-0.00018028000,4.16000,0.36800
,,,-0.00018024000,4.16000,0.36800
,,,-0.00018020000,4.16000,0.36000
,,,-0.00018016000,4.16000,0.36000
,,,-0.00018012000,4.16000,0.36000
,,,-0.00018008002,4.16000,0.36000
,,,-0.00018004000,4.16000,0.35200
,,,-0.00018000000,4.08000,0.36000
,,,-0.00017996000,4.16000,0.36800
,,,-0.00017992000,4.16000,0.36800
,,,-0.00017988000,4.08000,0.36000
,,,-0.00017983998,4.08000,0.36800
,,,-0.00017980000,4.08000,0.36000
,,,-0.00017976000,4.16000,0.36000
,,,-0.00017972000,4.16000,0.36800
,,,-0.00017967998,4.16000,0.36000
,,,-0.00017963998,4.16000,0.36000
,,,-0.00017960000,4.08000,0.36000
,,,-0.00017956000,4.16000,0.36000
,,,-0.00017952000,4.08000,0.36800
,,,-0.00017947998,4.08000,0.36800
,,,-0.00017944000,4.16000,0.36800
,,,-0.00017940000,4.16000,0.36000
,,,-0.00017936000,4.16000,0.36000
,,,-0.00017931998,4.16000,0.36000
,,,-0.00017927998,4.16000,0.36800
,,,-0.00017924000,4.16000,0.36000
,,,-0.00017920000,4.16000,0.36000
,,,-0.00017916000,4.16000,0.36800
,,,-0.00017911998,4.08000,0.36800
,,,-0.00017908000,4.16000,0.36800
,,,-0.00017904000,4.16000,0.37600
,,,-0.00017900000,4.16000,0.36800
,,,-0.00017896000,4.16000,0.36800
,,,-0.00017892000,4.16000,0.36800
,,,-0.00017888000,4.16000,0.36800
,,,-0.00017884000,4.16000,0.36000
,,,-0.00017880002,4.16000,0.36000
,,,-0.00017876000,4.16000,0.36800
,,,-0.00017872000,4.16000,0.36800
,,,-0.00017868000,4.16000,0.36000
,,,-0.00017864000,4.16000,0.36800
,,,-0.00017860000,4.16000,0.36000
,,,-0.00017856000,4.16000,0.36000
,,,-0.00017852000,4.16000,0.36800
,,,-0.00017848000,4.16000,0.36800
,,,-0.00017844002,4.16000,0.36800
,,,-0.00017840000,4.16000,0.36000
,,,-0.00017836000,4.16000,0.36000
,,,-0.00017832000,4.16000,0.36800
,,,-0.00017828000,4.16000,0.37600
,,,-0.00017824000,4.16000,0.36800
,,,-0.00017820000,4.16000,0.36800
,,,-0.00017816000,4.16000,0.36800
,,,-0.00017812000,4.16000,0.36800
,,,-0.00017808002,4.16000,0.36000
,,,-0.00017804000,4.16000,0.36800
,,,-0.00017800000,4.16000,0.36000
,,,-0.00017796000,4.16000,0.36000
,,,-0.00017792000,4.16000,0.37600
,,,-0.00017788000,4.16000,0.36800
,,,-0.00017783998,4.16000,0.36800
,,,-0.00017780000,4.16000,0.37600
,,,-0.00017776000,4.16000,0.37600
,,,-0.00017772000,4.16000,0.36800
,,,-0.00017767998,4.16000,0.37600
,,,-0.00017763998,4.16000,0.36800
,,,-0.00017760000,4.16000,0.36800
,,,-0.00017756000,4.16000,0.37600
,,,-0.00017752000,4.16000,0.37600
,,,-0.00017747998,4.16000,0.36800
,,,-0.00017744000,4.16000,0.36000
,,,-0.00017740000,4.16000,0.36000
,,,-0.00017736000,4.16000,0.37600
,,,-0.00017731998,4.16000,0.36800
,,,-0.00017727998,4.16000,0.37600
,,,-0.00017724000,4.16000,0.36800
,,,-0.00017720000,4.16000,0.36000
,,,-0.00017716000,4.16000,0.37600
,,,-0.00017711998,4.16000,0.36800
,,,-0.00017708000,4.16000,0.36800
,,,-0.00017704000,4.08000,0.36800
,,,-0.00017700000,4.16000,0.36000
,,,-0.00017696000,4.16000,0.36800
,,,-0.00017692000,4.16000,0.36800
,,,-0.00017688000,4.16000,0.36800
,,,-0.00017684000,4.16000,0.36800
,,,-0.00017680000,4.08000,0.36800
,,,-0.00017676000,4.16000,0.37600
,,,-0.00017672000,4.16000,0.37600
,,,-0.00017668000,4.16000,0.36800
,,,-0.00017664000,4.16000,0.36800
,,,-0.00017660000,4.16000,0.36800
,,,-0.00017656000,4.16000,0.37600
,,,-0.00017652000,4.16000,0.36800
,,,-0.00017648000,4.16000,0.37600
,,,-0.00017644000,4.16000,0.36800
,,,-0.00017640000,4.08000,0.36000
,,,-0.00017636000,4.08000,0.37600
,,,-0.00017632000,4.16000,0.36800
,,,-0.00017628000,4.16000,0.37600
,,,-0.00017624000,4.16000,0.36800
,,,-0.00017620000,4.16000,0.37600
,,,-0.00017616000,4.16000,0.37600
,,,-0.00017612000,4.08000,0.36800
,,,-0.00017608000,4.08000,0.36000
,,,-0.00017604000,4.16000,0.37600
,,,-0.00017600000,4.08000,0.36800
,,,-0.00017596000,4.08000,0.37600
,,,-0.00017592000,4.16000,0.36800
,,,-0.00017587998,4.16000,0.36800
,,,-0.00017583998,4.08000,0.36800
,,,-0.00017580000,4.08000,0.36000
,,,-0.00017576000,4.08000,0.36800
,,,-0.00017572000,4.08000,0.36800
,,,-0.00017567998,4.08000,0.36000
,,,-0.00017563998,4.08000,0.36800
,,,-0.00017560000,4.08000,0.36000
,,,-0.00017556000,4.08000,0.37600
,,,-0.00017551998,4.08000,0.36800
,,,-0.00017547998,4.08000,0.36800
,,,-0.00017544000,4.08000,0.36000
,,,-0.00017540000,4.08000,0.36000
,,,-0.00017536000,4.16000,0.37600
,,,-0.00017531998,4.08000,0.36800
,,,-0.00017527998,4.08000,0.36000
,,,-0.00017524000,4.08000,0.36800
,,,-0.00017520000,4.08000,0.36000
,,,-0.00017515998,4.08000,0.37600
,,,-0.00017511998,4.00000,0.36000
,,,-0.00017508000,4.08000,0.36800
,,,-0.00017504000,4.00000,0.36000
,,,-0.00017500000,4.08000,0.36000
,,,-0.00017496000,4.08000,0.36800
,,,-0.00017492000,4.08000,0.36000
,,,-0.00017488000,4.00000,0.36000
,,,-0.00017484000,4.08000,0.36000
,,,-0.00017480000,4.08000,0.36000
,,,-0.00017476000,4.08000,0.36800
,,,-0.00017472000,4.08000,0.36800
,,,-0.00017468000,4.00000,0.36000
,,,-0.00017464000,4.08000,0.36800
,,,-0.00017460000,4.08000,0.36000
,,,-0.00017456000,4.00000,0.36800
,,,-0.00017452000,4.08000,0.36000
,,,-0.00017448000,4.00000,0.36000
,,,-0.00017444000,4.00000,0.36000
,,,-0.00017440000,4.00000,0.36000
,,,-0.00017436000,4.00000,0.36800
,,,-0.00017432000,4.00000,0.36000
,,,-0.00017428000,4.00000,0.36000
,,,-0.00017424000,4.00000,0.35200
,,,-0.00017420000,4.00000,0.36000
,,,-0.00017416000,4.00000,0.36800
,,,-0.00017412000,4.00000,0.36000
,,,-0.00017408000,4.00000,0.36000
,,,-0.00017404000,4.00000,0.36000
,,,-0.00017400000,4.00000,0.36000
,,,-0.00017396000,4.00000,0.36000
,,,-0.00017392000,4.00000,0.36000
,,,-0.00017387998,4.00000,0.36000
,,,-0.00017383998,4.00000,0.36000
,,,-0.00017380000,4.00000,0.36000
,,,-0.00017376000,3.92000,0.36000
,,,-0.00017372000,4.00000,0.35200
,,,-0.00017367998,4.00000,0.36000
,,,-0.00017363998,4.00000,0.36000
,,,-0.00017360000,4.00000,0.35200
,,,-0.00017356000,4.00000,0.36800
,,,-0.00017351998,4.00000,0.35200
,,,-0.00017347998,4.00000,0.35200
,,,-0.00017344000,4.00000,0.36000
,,,-0.00017340000,4.00000,0.35200
,,,-0.00017336000,4.00000,0.36000
,,,-0.00017331998,3.92000,0.35200
,,,-0.00017327998,3.92000,0.35200
,,,-0.00017324000,4.00000,0.35200
,,,-0.00017320000,3.92000,0.35200
,,,-0.00017315998,3.92000,0.35200
,,,-0.00017311998,3.92000,0.36000
,,,-0.00017308000,3.92000,0.35200
,,,-0.00017304000,3.92000,0.34400
,,,-0.00017300000,3.92000,0.34400
,,,-0.00017296000,3.92000,0.35200
,,,-0.00017292000,3.92000,0.35200
,,,-0.00017288000,3.92000,0.35200
,,,-0.00017284000,3.92000,0.34400
,,,-0.00017280000,3.92000,0.35200
,,,-0.00017276000,3.92000,0.36000
,,,-0.00017272000,3.92000,0.35200
,,,-0.00017268000,3.92000,0.35200
,,,-0.00017264000,3.92000,0.35200
,,,-0.00017260000,3.92000,0.35200
,,,-0.00017256000,3.84000,0.36000
,,,-0.00017252000,3.92000,0.35200
,,,-0.00017248000,3.92000,0.34400
,,,-0.00017244000,3.92000,0.34400
,,,-0.00017240000,3.84000,0.34400
,,,-0.00017236000,3.84000,0.36000
,,,-0.00017232000,3.84000,0.34400
,,,-0.00017228000,3.92000,0.34400
,,,-0.00017224000,3.84000,0.35200
,,,-0.00017220000,3.84000,0.34400
,,,-0.00017216000,3.84000,0.33600
,,,-0.00017212000,3.84000,0.34400
,,,-0.00017208000,3.84000,0.35200
,,,-0.00017204000,3.84000,0.35200
,,,-0.00017200000,3.84000,0.33600
,,,-0.00017196000,3.84000,0.34400
,,,-0.00017192000,3.84000,0.34400
,,,-0.00017187998,3.84000,0.33600
,,,-0.00017183998,3.84000,0.34400
,,,-0.00017180000,3.84000,0.33600
,,,-0.00017176000,3.84000,0.35200
,,,-0.00017171998,3.84000,0.33600
,,,-0.00017167998,3.84000,0.34400
,,,-0.00017163998,3.84000,0.33600
,,,-0.00017160000,3.84000,0.33600
,,,-0.00017156000,3.84000,0.33600
,,,-0.00017151998,3.84000,0.33600
,,,-0.00017147998,3.84000,0.33600
,,,-0.00017144000,3.84000,0.35200
,,,-0.00017140000,3.84000,0.34400
,,,-0.00017136000,3.84000,0.33600
,,,-0.00017131998,3.84000,0.33600
,,,-0.00017127998,3.84000,0.33600
,,,-0.00017124000,3.84000,0.32800
,,,-0.00017120000,3.84000,0.32800
,,,-0.00017115998,3.84000,0.33600
,,,-0.00017111998,3.84000,0.34400
,,,-0.00017108000,3.84000,0.32800
,,,-0.00017104000,3.84000,0.33600
,,,-0.00017100000,3.84000,0.32000
,,,-0.00017096000,3.84000,0.32800
,,,-0.00017092000,3.84000,0.33600
,,,-0.00017088000,3.84000,0.33600
,,,-0.00017084000,3.84000,0.32800
,,,-0.00017080000,3.84000,0.32000
,,,-0.00017076000,3.76000,0.32800
,,,-0.00017072000,3.76000,0.32800
,,,-0.00017068000,3.76000,0.32000
,,,-0.00017064000,3.76000,0.32800
,,,-0.00017060000,3.76000,0.32800
,,,-0.00017056000,3.76000,0.32800
,,,-0.00017052000,3.76000,0.32800
,,,-0.00017048000,3.76000,0.32800
,,,-0.00017044000,3.76000,0.32800
,,,-0.00017040000,3.76000,0.32000
,,,-0.00017036000,3.76000,0.32000
,,,-0.00017032000,3.68000,0.32800
,,,-0.00017028000,3.76000,0.32000
,,,-0.00017024000,3.76000,0.32800
,,,-0.00017020000,3.76000,0.32000
,,,-0.00017016000,3.76000,0.31200
,,,-0.00017012000,3.68000,0.32800
,,,-0.00017008000,3.68000,0.32800
,,,-0.00017004000,3.68000,0.32800
,,,-0.00017000000,3.68000,0.32000
,,,-0.00016996002,3.68000,0.32000
,,,-0.00016992000,3.68000,0.32800
,,,-0.00016988000,3.68000,0.31200
,,,-0.00016984000,3.68000,0.32800
,,,-0.00016980002,3.68000,0.32000
,,,-0.00016976002,3.68000,0.32000
,,,-0.00016972000,3.60000,0.32000
,,,-0.00016968000,3.68000,0.31200
,,,-0.00016964000,3.60000,0.32800
,,,-0.00016960002,3.60000,0.31200
,,,-0.00016956000,3.68000,0.32000
,,,-0.00016952000,3.60000,0.31200
,,,-0.00016948000,3.60000,0.32000
,,,-0.00016944002,3.60000,0.31200
,,,-0.00016940002,3.60000,0.31200
,,,-0.00016936000,3.52000,0.31200
,,,-0.00016932000,3.60000,0.31200
,,,-0.00016928000,3.60000,0.31200
,,,-0.00016924002,3.52000,0.31200
,,,-0.00016920000,3.60000,0.31200
,,,-0.00016916000,3.60000,0.31200
,,,-0.00016912000,3.52000,0.31200
,,,-0.00016908002,3.52000,0.31200
,,,-0.00016904002,3.52000,0.32000
,,,-0.00016900000,3.52000,0.31200
,,,-0.00016896000,3.52000,0.31200
,,,-0.00016892000,3.52000,0.31200
,,,-0.00016888000,3.52000,0.31200
,,,-0.00016884000,3.52000,0.31200
,,,-0.00016880000,3.52000,0.31200
,,,-0.00016876000,3.52000,0.31200
,,,-0.00016872000,3.52000,0.31200
,,,-0.00016868000,3.52000,0.31200
,,,-0.00016863998,3.52000,0.31200
,,,-0.00016860000,3.44000,0.31200
,,,-0.00016856000,3.52000,0.31200
,,,-0.00016852000,3.44000,0.29600
,,,-0.00016848000,3.52000,0.30400
,,,-0.00016844000,3.52000,0.30400
,,,-0.00016840000,3.44000,0.30400
,,,-0.00016836000,3.44000,0.31200
,,,-0.00016832000,3.44000,0.30400
,,,-0.00016827998,3.44000,0.30400
,,,-0.00016824000,3.44000,0.30400
,,,-0.00016820000,3.44000,0.29600
,,,-0.00016816000,3.44000,0.31200
,,,-0.00016812000,3.44000,0.30400
,,,-0.00016808000,3.36000,0.29600
,,,-0.00016804000,3.44000,0.29600
,,,-0.00016800000,3.44000,0.29600
,,,-0.00016796002,3.36000,0.31200
,,,-0.00016792000,3.36000,0.28800
,,,-0.00016788000,3.36000,0.28800
,,,-0.00016784000,3.36000,0.29600
,,,-0.00016780002,3.36000,0.28800
,,,-0.00016776002,3.28000,0.30400
,,,-0.00016772000,3.36000,0.29600
,,,-0.00016768000,3.36000,0.28800
,,,-0.00016764000,3.36000,0.28800
,,,-0.00016760002,3.36000,0.28800
,,,-0.00016756000,3.36000,0.29600
,,,-0.00016752000,3.28000,0.29600
,,,-0.00016748000,3.28000,0.28800
,,,-0.00016744002,3.28000,0.28800
,,,-0.00016740002,3.28000,0.28800
,,,-0.00016736000,3.28000,0.28800
,,,-0.00016732000,3.28000,0.28000
,,,-0.00016728000,3.28000,0.28800
,,,-0.00016724002,3.28000,0.28000
,,,-0.00016720000,3.28000,0.27200
,,,-0.00016716000,3.28000,0.29600
,,,-0.00016712000,3.20000,0.28800
,,,-0.00016708002,3.20000,0.28000
,,,-0.00016704002,3.20000,0.27200
,,,-0.00016700000,3.20000,0.28000
,,,-0.00016696000,3.20000,0.29600
,,,-0.00016692000,3.20000,0.27200
,,,-0.00016688000,3.20000,0.28800
,,,-0.00016684000,3.20000,0.28000
,,,-0.00016680000,3.20000,0.28000
,,,-0.00016676000,3.20000,0.28000
,,,-0.00016672000,3.20000,0.28000
,,,-0.00016668000,3.12000,0.27200
,,,-0.00016663998,3.12000,0.27200
,,,-0.00016660000,3.12000,0.28000
,,,-0.00016656000,3.12000,0.27200
,,,-0.00016652000,3.12000,0.26400
,,,-0.00016648000,3.12000,0.27200
,,,-0.00016644000,3.12000,0.28000
,,,-0.00016640000,3.12000,0.27200
,,,-0.00016636000,3.12000,0.28000
,,,-0.00016632000,3.12000,0.26400
,,,-0.00016627998,3.12000,0.28000
,,,-0.00016624000,3.12000,0.25600
,,,-0.00016620000,3.04000,0.25600
,,,-0.00016616000,3.04000,0.27200
,,,-0.00016612000,3.12000,0.26400
,,,-0.00016608000,3.04000,0.27200
,,,-0.00016604000,3.04000,0.26400
,,,-0.00016600000,3.04000,0.26400
,,,-0.00016596002,3.04000,0.27200
,,,-0.00016592000,2.96000,0.26400
,,,-0.00016588000,3.04000,0.26400
,,,-0.00016584000,2.96000,0.26400
,,,-0.00016580002,2.96000,0.26400
,,,-0.00016576000,2.96000,0.26400
,,,-0.00016572000,2.96000,0.25600
,,,-0.00016568000,2.96000,0.25600
,,,-0.00016564000,2.96000,0.25600
,,,-0.00016560002,2.96000,0.25600
,,,-0.00016556000,2.96000,0.25600
,,,-0.00016552000,2.96000,0.25600
,,,-0.00016548000,2.88000,0.25600
,,,-0.00016544002,2.88000,0.25600
,,,-0.00016540002,2.96000,0.24800
,,,-0.00016536000,2.96000,0.25600
,,,-0.00016532000,2.88000,0.24800
,,,-0.00016528000,2.88000,0.24800
,,,-0.00016524002,2.88000,0.25600
,,,-0.00016520000,2.88000,0.25600
,,,-0.00016516000,2.88000,0.24800
,,,-0.00016512000,2.88000,0.24800
,,,-0.00016508002,2.88000,0.24000
,,,-0.00016504002,2.88000,0.25600
,,,-0.00016500000,2.88000,0.24800
,,,-0.00016496000,2.80000,0.24800
,,,-0.00016492000,2.80000,0.24800
,,,-0.00016488000,2.80000,0.24000
,,,-0.00016483998,2.80000,0.24800
,,,-0.00016480000,2.80000,0.24000
,,,-0.00016476000,2.80000,0.24000
,,,-0.00016472000,2.80000,0.24800
,,,-0.00016468000,2.80000,0.23200
,,,-0.00016463998,2.72000,0.24000
,,,-0.00016460000,2.80000,0.23200
,,,-0.00016456000,2.80000,0.24000
,,,-0.00016452000,2.72000,0.24000
,,,-0.00016448000,2.72000,0.23200
,,,-0.00016444000,2.72000,0.24000
,,,-0.00016440000,2.72000,0.23200
,,,-0.00016436000,2.72000,0.24000
,,,-0.00016432000,2.72000,0.23200
,,,-0.00016427998,2.72000,0.23200
,,,-0.00016424000,2.72000,0.22400
,,,-0.00016420000,2.72000,0.22400
,,,-0.00016416000,2.72000,0.23200
,,,-0.00016412000,2.72000,0.23200
,,,-0.00016408000,2.64000,0.21600
,,,-0.00016404000,2.64000,0.22400
,,,-0.00016400000,2.64000,0.23200
,,,-0.00016396002,2.72000,0.22400
,,,-0.00016392000,2.64000,0.22400
,,,-0.00016388000,2.56000,0.23200
,,,-0.00016384000,2.64000,0.22400
,,,-0.00016380002,2.56000,0.23200
,,,-0.00016376000,2.56000,0.23200
,,,-0.00016372000,2.56000,0.22400
,,,-0.00016368000,2.56000,0.22400
,,,-0.00016364000,2.56000,0.23200
,,,-0.00016360002,2.56000,0.23200
,,,-0.00016356000,2.56000,0.22400
,,,-0.00016352000,2.56000,0.22400
,,,-0.00016348000,2.56000,0.21600
,,,-0.00016344002,2.48000,0.21600
,,,-0.00016340000,2.48000,0.21600
,,,-0.00016336000,2.48000,0.21600
,,,-0.00016332000,2.48000,0.21600
,,,-0.00016328000,2.48000,0.21600
,,,-0.00016324002,2.48000,0.20800
,,,-0.00016320000,2.48000,0.20800
,,,-0.00016316000,2.48000,0.21600
,,,-0.00016312000,2.40000,0.20800
,,,-0.00016308002,2.40000,0.20800
,,,-0.00016304000,2.40000,0.20800
,,,-0.00016300000,2.40000,0.20800
,,,-0.00016296000,2.40000,0.20800
,,,-0.00016292000,2.40000,0.20800
,,,-0.00016288000,2.40000,0.20800
,,,-0.00016283998,2.40000,0.20800
,,,-0.00016280000,2.40000,0.20000
,,,-0.00016276000,2.32000,0.20000
,,,-0.00016272000,2.32000,0.20800
,,,-0.00016268000,2.32000,0.20000
,,,-0.00016263998,2.32000,0.19200
,,,-0.00016260000,2.40000,0.20000
,,,-0.00016256000,2.32000,0.20000
,,,-0.00016252000,2.32000,0.19200
,,,-0.00016247998,2.24000,0.19200
,,,-0.00016244000,2.32000,0.19200
,,,-0.00016240000,2.32000,0.20000
,,,-0.00016236000,2.24000,0.20000
,,,-0.00016232000,2.24000,0.20000
,,,-0.00016227998,2.24000,0.19200
,,,-0.00016224000,2.24000,0.19200
,,,-0.00016220000,2.24000,0.19200
,,,-0.00016216000,2.24000,0.20000
,,,-0.00016211998,2.24000,0.20000
,,,-0.00016208000,2.24000,0.19200
,,,-0.00016204000,2.24000,0.19200
,,,-0.00016200000,2.16000,0.20000
,,,-0.00016196002,2.16000,0.19200
,,,-0.00016192000,2.16000,0.19200
,,,-0.00016188000,2.16000,0.19200
,,,-0.00016184000,2.16000,0.19200
,,,-0.00016180002,2.16000,0.19200
,,,-0.00016176000,2.16000,0.19200
,,,-0.00016172000,2.16000,0.19200
,,,-0.00016168000,2.16000,0.18400
,,,-0.00016164000,2.16000,0.18400
,,,-0.00016160002,2.08000,0.18400
,,,-0.00016156000,2.08000,0.18400
,,,-0.00016152000,2.08000,0.19200
,,,-0.00016148000,2.08000,0.17600
,,,-0.00016144002,2.08000,0.18400
,,,-0.00016140000,2.08000,0.18400
,,,-0.00016136000,2.00000,0.19200
,,,-0.00016132000,2.08000,0.17600
,,,-0.00016128000,2.08000,0.18400
,,,-0.00016124002,2.00000,0.19200
,,,-0.00016120000,2.00000,0.17600
