Oszilloskop Messungen 19.4.23/WA000028.CSV

Record Length,9216,,Source,CH1,CH2
Sample Interval,0.0000000006510,,Second,Volt,Volt
Vertical Units,CH1:V CH2:V,,-0.00000460800,3.84000,0.31200
Vertical Scale,CH1:2.00 CH2:0.20,,-0.00000460700,3.92000,0.31200
Vertical Offset,CH1:0.00 CH2:-0.01600,,-0.00000460600,3.84000,0.31200
Horizontal Units,s,,-0.00000460500,3.92000,0.31200
Horizontal Scale,0.0000005000,,-0.00000460400,3.84000,0.31200
Model Number,WaveAce202,,-0.00000460300,3.92000,0.31200
Serial Number,LCRY2104C00378,,-0.00000460200,3.84000,0.31200
Software Version,2.06.02.11,,-0.00000460100,3.92000,0.31200
,,,-0.00000460000,3.92000,0.32800
,,,-0.00000459900,3.84000,0.32800
,,,-0.00000459800,3.92000,0.32000
,,,-0.00000459700,3.92000,0.31200
,,,-0.00000459600,3.92000,0.31200
,,,-0.00000459500,3.92000,0.30400
,,,-0.00000459400,3.84000,0.31200
,,,-0.00000459300,3.84000,0.31200
,,,-0.00000459200,3.92000,0.31200
,,,-0.00000459100,3.92000,0.31200
,,,-0.00000459000,3.92000,0.31200
,,,-0.00000458900,3.92000,0.31200
,,,-0.00000458800,3.92000,0.31200
,,,-0.00000458700,3.92000,0.31200
,,,-0.00000458600,3.92000,0.32000
,,,-0.00000458500,3.92000,0.32800
,,,-0.00000458400,3.92000,0.32800
,,,-0.00000458300,3.92000,0.32800
,,,-0.00000458200,3.92000,0.33600
,,,-0.00000458100,3.92000,0.32800
,,,-0.00000458000,3.92000,0.33600
,,,-0.00000457900,4.00000,0.33600
,,,-0.00000457800,3.92000,0.33600
,,,-0.00000457700,4.00000,0.32800
,,,-0.00000457600,3.92000,0.32800
,,,-0.00000457500,3.92000,0.32000
,,,-0.00000457400,3.92000,0.32000
,,,-0.00000457300,4.00000,0.31200
,,,-0.00000457200,3.92000,0.31200
,,,-0.00000457100,4.00000,0.32000
,,,-0.00000457000,4.00000,0.32000
,,,-0.00000456900,4.00000,0.32000
,,,-0.00000456800,4.00000,0.32000
,,,-0.00000456700,4.00000,0.32800
,,,-0.00000456600,3.92000,0.32800
,,,-0.00000456500,4.00000,0.33600
,,,-0.00000456400,4.00000,0.33600
,,,-0.00000456300,4.00000,0.32800
,,,-0.00000456200,4.00000,0.32800
,,,-0.00000456100,4.00000,0.33600
,,,-0.00000456000,4.00000,0.34400
,,,-0.00000455900,4.00000,0.34400
,,,-0.00000455800,4.00000,0.33600
,,,-0.00000455700,4.00000,0.32000
,,,-0.00000455600,4.00000,0.32800
,,,-0.00000455500,4.08000,0.32800
,,,-0.00000455400,4.00000,0.32800
,,,-0.00000455300,4.08000,0.32000
,,,-0.00000455200,4.08000,0.32800
,,,-0.00000455100,4.08000,0.32800
,,,-0.00000455000,4.00000,0.32800
,,,-0.00000454900,4.08000,0.32800
,,,-0.00000454800,4.00000,0.33600
,,,-0.00000454700,4.08000,0.32800
,,,-0.00000454600,4.08000,0.33600
,,,-0.00000454500,4.08000,0.34400
,,,-0.00000454400,4.00000,0.35200
,,,-0.00000454300,4.08000,0.35200
,,,-0.00000454200,4.08000,0.35200
,,,-0.00000454100,4.08000,0.35200
,,,-0.00000454000,4.08000,0.35200
,,,-0.00000453900,4.08000,0.34400
,,,-0.00000453800,4.08000,0.35200
,,,-0.00000453700,4.08000,0.34400
,,,-0.00000453600,4.08000,0.34400
,,,-0.00000453500,4.08000,0.34400
,,,-0.00000453400,4.08000,0.34400
,,,-0.00000453300,4.08000,0.34400
,,,-0.00000453200,4.08000,0.33600
,,,-0.00000453100,4.08000,0.33600
,,,-0.00000453000,4.08000,0.33600
,,,-0.00000452900,4.08000,0.33600
,,,-0.00000452800,4.08000,0.34400
,,,-0.00000452700,4.08000,0.33600
,,,-0.00000452600,4.08000,0.34400
,,,-0.00000452500,4.08000,0.33600
,,,-0.00000452400,4.08000,0.34400
,,,-0.00000452300,4.08000,0.35200
,,,-0.00000452200,4.08000,0.35200
,,,-0.00000452100,4.08000,0.34400
,,,-0.00000452000,4.08000,0.35200
,,,-0.00000451900,4.08000,0.35200
,,,-0.00000451800,4.08000,0.34400
,,,-0.00000451700,4.16000,0.35200
,,,-0.00000451600,4.08000,0.34400
,,,-0.00000451500,4.08000,0.33600
,,,-0.00000451400,4.08000,0.34400
,,,-0.00000451300,4.16000,0.35200
,,,-0.00000451200,4.08000,0.35200
,,,-0.00000451100,4.08000,0.35200
,,,-0.00000451000,4.08000,0.35200
,,,-0.00000450900,4.08000,0.35200
,,,-0.00000450800,4.08000,0.35200
,,,-0.00000450700,4.08000,0.34400
,,,-0.00000450600,4.08000,0.34400
,,,-0.00000450500,4.16000,0.34400
,,,-0.00000450400,4.08000,0.35200
,,,-0.00000450300,4.16000,0.35200
,,,-0.00000450200,4.08000,0.35200
,,,-0.00000450100,4.08000,0.35200
,,,-0.00000450000,4.08000,0.35200
,,,-0.00000449900,4.08000,0.35200
,,,-0.00000449800,4.16000,0.35200
,,,-0.00000449700,4.08000,0.35200
,,,-0.00000449600,4.08000,0.35200
,,,-0.00000449500,4.08000,0.36000
,,,-0.00000449400,4.08000,0.35200
,,,-0.00000449300,4.16000,0.35200
,,,-0.00000449200,4.08000,0.35200
,,,-0.00000449100,4.16000,0.35200
,,,-0.00000449000,4.16000,0.35200
,,,-0.00000448900,4.16000,0.35200
,,,-0.00000448800,4.16000,0.35200
,,,-0.00000448700,4.16000,0.34400
,,,-0.00000448600,4.08000,0.35200
,,,-0.00000448500,4.16000,0.35200
,,,-0.00000448400,4.08000,0.35200
,,,-0.00000448300,4.16000,0.35200
,,,-0.00000448200,4.08000,0.36000
,,,-0.00000448100,4.16000,0.36000
,,,-0.00000448000,4.00000,0.36000
,,,-0.00000447900,4.16000,0.36000
,,,-0.00000447800,4.08000,0.36000
,,,-0.00000447700,4.16000,0.36000
,,,-0.00000447600,4.08000,0.36000
,,,-0.00000447500,4.16000,0.36000
,,,-0.00000447400,4.08000,0.36800
,,,-0.00000447300,4.16000,0.36000
,,,-0.00000447200,4.08000,0.36000
,,,-0.00000447100,4.16000,0.36000
,,,-0.00000447000,4.08000,0.36000
,,,-0.00000446900,4.16000,0.36000
,,,-0.00000446800,4.16000,0.36800
,,,-0.00000446700,4.16000,0.36000
,,,-0.00000446600,4.16000,0.36000
,,,-0.00000446500,4.16000,0.36800
,,,-0.00000446400,4.16000,0.36800
,,,-0.00000446300,4.16000,0.36000
,,,-0.00000446200,4.16000,0.35200
,,,-0.00000446100,4.16000,0.35200
,,,-0.00000446000,4.16000,0.36000
,,,-0.00000445900,4.16000,0.36800
,,,-0.00000445800,4.08000,0.36800
,,,-0.00000445700,4.16000,0.36800
,,,-0.00000445600,4.08000,0.36800
,,,-0.00000445500,4.16000,0.36800
,,,-0.00000445400,4.16000,0.36000
,,,-0.00000445300,4.16000,0.36800
,,,-0.00000445200,4.16000,0.36000
,,,-0.00000445100,4.16000,0.35200
,,,-0.00000445000,4.16000,0.35200
,,,-0.00000444900,4.16000,0.35200
,,,-0.00000444800,4.08000,0.36000
,,,-0.00000444700,4.16000,0.35200
,,,-0.00000444600,4.16000,0.36000
,,,-0.00000444500,4.16000,0.36000
,,,-0.00000444400,4.08000,0.36000
,,,-0.00000444300,4.16000,0.36000
,,,-0.00000444200,4.16000,0.36000
,,,-0.00000444100,4.16000,0.36000
,,,-0.00000444000,4.16000,0.36000
,,,-0.00000443900,4.16000,0.35200
,,,-0.00000443800,4.16000,0.35200
,,,-0.00000443700,4.16000,0.36000
,,,-0.00000443600,4.08000,0.36800
,,,-0.00000443500,4.16000,0.36800
,,,-0.00000443400,4.16000,0.36800
,,,-0.00000443300,4.16000,0.36800
,,,-0.00000443200,4.08000,0.36800
,,,-0.00000443100,4.16000,0.36800
,,,-0.00000443000,4.08000,0.36000
,,,-0.00000442900,4.16000,0.36800
,,,-0.00000442800,4.08000,0.36000
,,,-0.00000442700,4.16000,0.36000
,,,-0.00000442600,4.08000,0.36800
,,,-0.00000442500,4.08000,0.36000
,,,-0.00000442400,4.08000,0.36000
,,,-0.00000442300,4.16000,0.36000
,,,-0.00000442200,4.16000,0.36000
,,,-0.00000442100,4.16000,0.36000
,,,-0.00000442000,4.08000,0.36800
,,,-0.00000441900,4.16000,0.36000
,,,-0.00000441800,4.08000,0.36800
,,,-0.00000441700,4.16000,0.36800
,,,-0.00000441600,4.08000,0.36000
,,,-0.00000441500,4.08000,0.35200
,,,-0.00000441400,4.16000,0.35200
,,,-0.00000441300,4.16000,0.36800
,,,-0.00000441200,4.08000,0.37600
,,,-0.00000441100,4.08000,0.36800
,,,-0.00000441000,4.08000,0.36800
,,,-0.00000440900,4.16000,0.36000
,,,-0.00000440800,4.08000,0.36000
,,,-0.00000440700,4.08000,0.36000
,,,-0.00000440600,4.08000,0.36000
,,,-0.00000440500,4.16000,0.36000
,,,-0.00000440400,4.08000,0.36000
,,,-0.00000440300,4.08000,0.36000
,,,-0.00000440200,4.08000,0.36000
,,,-0.00000440100,4.16000,0.36800
,,,-0.00000440000,4.08000,0.36800
,,,-0.00000439900,4.16000,0.36800
,,,-0.00000439800,4.08000,0.36800
,,,-0.00000439700,4.16000,0.36800
,,,-0.00000439600,4.08000,0.36800
,,,-0.00000439500,4.16000,0.36800
,,,-0.00000439400,4.08000,0.36800
,,,-0.00000439300,4.08000,0.36800
,,,-0.00000439200,4.08000,0.36000
,,,-0.00000439100,4.16000,0.36800
,,,-0.00000439000,4.08000,0.36800
,,,-0.00000438900,4.08000,0.36800
,,,-0.00000438800,4.00000,0.36800
,,,-0.00000438700,4.08000,0.36800
,,,-0.00000438600,4.08000,0.36800
,,,-0.00000438500,4.16000,0.36000
,,,-0.00000438400,4.08000,0.36000
,,,-0.00000438300,4.08000,0.36000
,,,-0.00000438200,4.00000,0.36000
,,,-0.00000438100,4.08000,0.36000
,,,-0.00000438000,4.00000,0.36000
,,,-0.00000437900,4.08000,0.36000
,,,-0.00000437800,4.00000,0.36000
,,,-0.00000437700,4.08000,0.35200
,,,-0.00000437600,4.00000,0.36000
,,,-0.00000437500,4.08000,0.36000
,,,-0.00000437400,4.00000,0.35200
,,,-0.00000437300,4.00000,0.36000
,,,-0.00000437200,4.08000,0.36000
,,,-0.00000437100,4.00000,0.36000
,,,-0.00000437000,4.00000,0.36000
,,,-0.00000436900,4.00000,0.36800
,,,-0.00000436800,4.00000,0.36000
,,,-0.00000436700,4.00000,0.36000
,,,-0.00000436600,4.00000,0.36000
,,,-0.00000436500,4.00000,0.36800
,,,-0.00000436400,4.00000,0.36000
,,,-0.00000436300,4.00000,0.35200
,,,-0.00000436200,3.92000,0.35200
,,,-0.00000436100,4.00000,0.35200
,,,-0.00000436000,4.00000,0.36000
,,,-0.00000435900,4.00000,0.36800
,,,-0.00000435800,4.00000,0.36800
,,,-0.00000435700,4.00000,0.36800
,,,-0.00000435600,4.00000,0.36000
,,,-0.00000435500,4.00000,0.36000
,,,-0.00000435400,4.00000,0.36000
,,,-0.00000435300,4.00000,0.36000
,,,-0.00000435200,3.92000,0.36000
,,,-0.00000435100,4.00000,0.35200
,,,-0.00000435000,4.00000,0.35200
,,,-0.00000434900,4.00000,0.36000
,,,-0.00000434800,3.92000,0.35200
,,,-0.00000434700,3.92000,0.35200
,,,-0.00000434600,3.92000,0.36000
,,,-0.00000434500,3.92000,0.36000
,,,-0.00000434400,3.92000,0.36000
,,,-0.00000434300,4.00000,0.35200
,,,-0.00000434200,3.92000,0.36000
,,,-0.00000434100,3.92000,0.36000
,,,-0.00000434000,3.92000,0.36000
,,,-0.00000433900,3.92000,0.36000
,,,-0.00000433800,3.92000,0.36000
,,,-0.00000433700,3.92000,0.36000
,,,-0.00000433600,3.92000,0.36000
,,,-0.00000433500,3.92000,0.35200
,,,-0.00000433400,3.92000,0.35200
,,,-0.00000433300,4.00000,0.34400
,,,-0.00000433200,3.92000,0.35200
,,,-0.00000433100,3.84000,0.35200
,,,-0.00000433000,3.92000,0.35200
,,,-0.00000432900,3.92000,0.35200
,,,-0.00000432800,3.92000,0.35200
,,,-0.00000432700,3.92000,0.35200
,,,-0.00000432600,3.92000,0.35200
,,,-0.00000432500,3.92000,0.35200
,,,-0.00000432400,3.92000,0.35200
,,,-0.00000432300,3.92000,0.35200
,,,-0.00000432200,3.84000,0.35200
,,,-0.00000432100,3.84000,0.35200
,,,-0.00000432000,3.84000,0.35200
,,,-0.00000431900,3.92000,0.35200
,,,-0.00000431800,3.84000,0.35200
,,,-0.00000431700,3.84000,0.35200
,,,-0.00000431600,3.84000,0.35200
,,,-0.00000431500,3.84000,0.34400
,,,-0.00000431400,3.84000,0.34400
,,,-0.00000431300,3.84000,0.35200
,,,-0.00000431200,3.84000,0.35200
,,,-0.00000431100,3.84000,0.34400
,,,-0.00000431000,3.84000,0.34400
,,,-0.00000430900,3.84000,0.36000
,,,-0.00000430800,3.84000,0.36800
,,,-0.00000430700,3.84000,0.36800
,,,-0.00000430600,3.84000,0.36000
,,,-0.00000430500,3.84000,0.35200
,,,-0.00000430400,3.84000,0.36800
,,,-0.00000430300,3.84000,0.36800
,,,-0.00000430200,3.84000,0.36800
,,,-0.00000430100,3.84000,0.36800
,,,-0.00000430000,3.84000,0.36000
,,,-0.00000429900,3.84000,0.36000
,,,-0.00000429800,3.84000,0.35200
,,,-0.00000429700,3.84000,0.35200
,,,-0.00000429600,3.84000,0.34400
,,,-0.00000429500,3.84000,0.34400
,,,-0.00000429400,3.84000,0.34400
,,,-0.00000429300,3.84000,0.32800
,,,-0.00000429200,3.84000,0.32800
,,,-0.00000429100,3.84000,0.33600
,,,-0.00000429000,3.84000,0.34400
,,,-0.00000428900,3.84000,0.34400
,,,-0.00000428800,3.84000,0.34400
,,,-0.00000428700,3.84000,0.34400
,,,-0.00000428600,3.76000,0.34400
,,,-0.00000428500,3.76000,0.34400
,,,-0.00000428400,3.76000,0.34400
,,,-0.00000428300,3.84000,0.34400
,,,-0.00000428200,3.76000,0.35200
,,,-0.00000428100,3.76000,0.35200
,,,-0.00000428000,3.76000,0.34400
,,,-0.00000427900,3.76000,0.34400
,,,-0.00000427800,3.76000,0.34400
,,,-0.00000427700,3.76000,0.34400
,,,-0.00000427600,3.76000,0.34400
,,,-0.00000427500,3.76000,0.34400
,,,-0.00000427400,3.76000,0.34400
,,,-0.00000427300,3.76000,0.33600
,,,-0.00000427200,3.76000,0.33600
,,,-0.00000427100,3.76000,0.34400
,,,-0.00000427000,3.76000,0.33600
,,,-0.00000426900,3.76000,0.33600
,,,-0.00000426800,3.68000,0.33600
,,,-0.00000426700,3.68000,0.33600
,,,-0.00000426600,3.68000,0.33600
,,,-0.00000426500,3.68000,0.34400
,,,-0.00000426400,3.60000,0.35200
,,,-0.00000426300,3.68000,0.34400
,,,-0.00000426200,3.68000,0.33600
,,,-0.00000426100,3.68000,0.34400
,,,-0.00000426000,3.60000,0.34400
,,,-0.00000425900,3.68000,0.34400
,,,-0.00000425800,3.68000,0.33600
,,,-0.00000425700,3.60000,0.32800
,,,-0.00000425600,3.60000,0.33600
,,,-0.00000425500,3.60000,0.33600
,,,-0.00000425400,3.60000,0.32800
,,,-0.00000425300,3.60000,0.32000
,,,-0.00000425200,3.60000,0.32800
,,,-0.00000425100,3.60000,0.32800
,,,-0.00000425000,3.60000,0.32800
,,,-0.00000424900,3.60000,0.32800
,,,-0.00000424800,3.60000,0.32800
,,,-0.00000424700,3.60000,0.33600
,,,-0.00000424600,3.60000,0.34400
,,,-0.00000424500,3.52000,0.34400
,,,-0.00000424400,3.60000,0.34400
,,,-0.00000424300,3.60000,0.35200
,,,-0.00000424200,3.52000,0.34400
,,,-0.00000424100,3.52000,0.34400
,,,-0.00000424000,3.44000,0.34400
,,,-0.00000423900,3.60000,0.33600
,,,-0.00000423800,3.52000,0.34400
,,,-0.00000423700,3.52000,0.33600
,,,-0.00000423600,3.52000,0.33600
,,,-0.00000423500,3.52000,0.33600
,,,-0.00000423400,3.52000,0.32800
,,,-0.00000423300,3.52000,0.32800
,,,-0.00000423200,3.52000,0.32800
,,,-0.00000423100,3.52000,0.32800
,,,-0.00000423000,3.52000,0.32000
,,,-0.00000422900,3.52000,0.32000
,,,-0.00000422800,3.44000,0.32000
,,,-0.00000422700,3.44000,0.32000
,,,-0.00000422600,3.44000,0.32000
,,,-0.00000422500,3.44000,0.32000
,,,-0.00000422400,3.44000,0.32000
,,,-0.00000422300,3.44000,0.32000
,,,-0.00000422200,3.44000,0.32000
,,,-0.00000422100,3.44000,0.32800
,,,-0.00000422000,3.44000,0.32800
,,,-0.00000421900,3.44000,0.32800
,,,-0.00000421800,3.44000,0.32800
,,,-0.00000421700,3.44000,0.33600
,,,-0.00000421600,3.36000,0.32800
,,,-0.00000421500,3.36000,0.31200
,,,-0.00000421400,3.36000,0.31200
,,,-0.00000421300,3.36000,0.32000
,,,-0.00000421200,3.36000,0.32000
,,,-0.00000421100,3.36000,0.32000
,,,-0.00000421000,3.36000,0.32000
,,,-0.00000420900,3.36000,0.32000
,,,-0.00000420800,3.36000,0.32000
,,,-0.00000420700,3.36000,0.32000
,,,-0.00000420600,3.36000,0.31200
,,,-0.00000420500,3.36000,0.31200
,,,-0.00000420400,3.28000,0.32000
,,,-0.00000420300,3.36000,0.32000
,,,-0.00000420200,3.28000,0.31200
,,,-0.00000420100,3.28000,0.31200
,,,-0.00000420000,3.28000,0.31200
,,,-0.00000419900,3.28000,0.32000
,,,-0.00000419800,3.28000,0.31200
,,,-0.00000419700,3.28000,0.31200
,,,-0.00000419600,3.20000,0.31200
,,,-0.00000419500,3.20000,0.31200
,,,-0.00000419400,3.20000,0.31200
,,,-0.00000419300,3.28000,0.31200
,,,-0.00000419200,3.20000,0.31200
,,,-0.00000419100,3.28000,0.31200
,,,-0.00000419000,3.20000,0.31200
,,,-0.00000418900,3.20000,0.31200
,,,-0.00000418800,3.20000,0.31200
,,,-0.00000418700,3.20000,0.31200
,,,-0.00000418600,3.12000,0.31200
,,,-0.00000418500,3.20000,0.31200
,,,-0.00000418400,3.20000,0.31200
,,,-0.00000418300,3.20000,0.31200
,,,-0.00000418200,3.12000,0.31200
,,,-0.00000418100,3.12000,0.31200
,,,-0.00000418000,3.12000,0.31200
,,,-0.00000417900,3.12000,0.30400
,,,-0.00000417800,3.12000,0.31200
,,,-0.00000417700,3.12000,0.31200
,,,-0.00000417600,3.12000,0.31200
,,,-0.00000417500,3.12000,0.30400
,,,-0.00000417400,3.12000,0.30400
,,,-0.00000417300,3.12000,0.30400
,,,-0.00000417200,3.12000,0.30400
,,,-0.00000417100,3.04000,0.30400
,,,-0.00000417000,3.12000,0.30400
,,,-0.00000416900,3.12000,0.30400
,,,-0.00000416800,3.04000,0.30400
,,,-0.00000416700,3.04000,0.30400
,,,-0.00000416600,2.96000,0.30400
,,,-0.00000416500,3.04000,0.31200
,,,-0.00000416400,3.04000,0.31200
,,,-0.00000416300,3.04000,0.30400
,,,-0.00000416200,3.04000,0.29600
,,,-0.00000416100,3.04000,0.30400
,,,-0.00000416000,2.96000,0.30400
,,,-0.00000415900,3.04000,0.30400
,,,-0.00000415800,2.96000,0.29600
,,,-0.00000415700,2.96000,0.28800
,,,-0.00000415600,2.96000,0.29600
,,,-0.00000415500,2.96000,0.29600
,,,-0.00000415400,2.96000,0.28800
,,,-0.00000415300,2.96000,0.28800
,,,-0.00000415200,2.96000,0.28800
,,,-0.00000415100,2.96000,0.29600
,,,-0.00000415000,2.96000,0.29600
,,,-0.00000414900,2.96000,0.29600
,,,-0.00000414800,2.88000,0.29600
,,,-0.00000414700,2.88000,0.29600
,,,-0.00000414600,2.88000,0.29600
,,,-0.00000414500,2.96000,0.29600
,,,-0.00000414400,2.88000,0.29600
,,,-0.00000414300,2.88000,0.29600
,,,-0.00000414200,2.88000,0.29600
,,,-0.00000414100,2.88000,0.29600
,,,-0.00000414000,2.80000,0.29600
,,,-0.00000413900,2.88000,0.29600
,,,-0.00000413800,2.80000,0.29600
,,,-0.00000413700,2.80000,0.29600
,,,-0.00000413600,2.80000,0.29600
,,,-0.00000413500,2.80000,0.29600
,,,-0.00000413400,2.80000,0.29600
,,,-0.00000413300,2.80000,0.28800
,,,-0.00000413200,2.80000,0.28000
,,,-0.00000413100,2.80000,0.28000
,,,-0.00000413000,2.80000,0.28000
,,,-0.00000412900,2.80000,0.28000
,,,-0.00000412800,2.72000,0.28000
,,,-0.00000412700,2.72000,0.28000
,,,-0.00000412600,2.72000,0.27200
,,,-0.00000412500,2.72000,0.28000
,,,-0.00000412400,2.72000,0.27200
,,,-0.00000412300,2.72000,0.27200
,,,-0.00000412200,2.72000,0.27200
,,,-0.00000412100,2.64000,0.28000
,,,-0.00000412000,2.72000,0.27200
,,,-0.00000411900,2.64000,0.28000
,,,-0.00000411800,2.64000,0.27200
,,,-0.00000411700,2.64000,0.27200
,,,-0.00000411600,2.64000,0.26400
,,,-0.00000411500,2.64000,0.25600
,,,-0.00000411400,2.64000,0.26400
,,,-0.00000411300,2.64000,0.27200
,,,-0.00000411200,2.56000,0.27200
,,,-0.00000411100,2.56000,0.26400
,,,-0.00000411000,2.56000,0.25600
,,,-0.00000410900,2.64000,0.26400
,,,-0.00000410800,2.56000,0.26400
,,,-0.00000410700,2.56000,0.26400
,,,-0.00000410600,2.56000,0.25600
,,,-0.00000410500,2.56000,0.25600
,,,-0.00000410400,2.56000,0.25600
,,,-0.00000410300,2.56000,0.25600
,,,-0.00000410200,2.56000,0.25600
,,,-0.00000410100,2.56000,0.25600
,,,-0.00000410000,2.56000,0.25600
,,,-0.00000409900,2.56000,0.26400
,,,-0.00000409800,2.48000,0.26400
,,,-0.00000409700,2.48000,0.25600
,,,-0.00000409600,2.48000,0.25600
,,,-0.00000409500,2.48000,0.26400
,,,-0.00000409400,2.48000,0.26400
,,,-0.00000409300,2.48000,0.26400
,,,-0.00000409200,2.48000,0.25600
,,,-0.00000409100,2.40000,0.26400
,,,-0.00000409000,2.40000,0.25600
,,,-0.00000408900,2.48000,0.26400
,,,-0.00000408800,2.48000,0.25600
,,,-0.00000408700,2.40000,0.25600
,,,-0.00000408600,2.40000,0.25600
,,,-0.00000408500,2.40000,0.24800
,,,-0.00000408400,2.40000,0.24800
,,,-0.00000408300,2.40000,0.24800
,,,-0.00000408200,2.40000,0.24000
,,,-0.00000408100,2.40000,0.24000
,,,-0.00000408000,2.32000,0.24000
,,,-0.00000407900,2.40000,0.24000
,,,-0.00000407800,2.32000,0.24000
,,,-0.00000407700,2.24000,0.24800
,,,-0.00000407600,2.24000,0.24800
,,,-0.00000407500,2.32000,0.24800
,,,-0.00000407400,2.24000,0.24800
,,,-0.00000407300,2.32000,0.25600
,,,-0.00000407200,2.24000,0.24800
,,,-0.00000407100,2.24000,0.24800
,,,-0.00000407000,2.24000,0.24800
,,,-0.00000406900,2.24000,0.24800
,,,-0.00000406800,2.24000,0.24000
,,,-0.00000406700,2.24000,0.24000
,,,-0.00000406600,2.24000,0.24000
,,,-0.00000406500,2.24000,0.24000
,,,-0.00000406400,2.16000,0.23200
,,,-0.00000406300,2.16000,0.22400
,,,-0.00000406200,2.16000,0.22400
,,,-0.00000406100,2.16000,0.22400
,,,-0.00000406000,2.16000,0.23200
,,,-0.00000405900,2.16000,0.22400
,,,-0.00000405800,2.16000,0.22400
,,,-0.00000405700,2.16000,0.22400
,,,-0.00000405600,2.08000,0.22400
,,,-0.00000405500,2.08000,0.22400
,,,-0.00000405400,2.08000,0.22400
,,,-0.00000405300,2.08000,0.22400
,,,-0.00000405200,2.08000,0.22400
,,,-0.00000405100,2.08000,0.22400
,,,-0.00000405000,2.00000,0.22400
,,,-0.00000404900,2.08000,0.22400
,,,-0.00000404800,2.00000,0.21600
,,,-0.00000404700,2.08000,0.22400
,,,-0.00000404600,2.00000,0.21600
,,,-0.00000404500,2.00000,0.21600
,,,-0.00000404400,2.00000,0.21600
,,,-0.00000404300,2.00000,0.21600
,,,-0.00000404200,2.00000,0.21600
,,,-0.00000404100,2.00000,0.21600
,,,-0.00000404000,2.00000,0.20800
,,,-0.00000403900,1.84000,0.20800
,,,-0.00000403800,1.92000,0.20800
,,,-0.00000403700,1.92000,0.20800
,,,-0.00000403600,1.92000,0.20800
,,,-0.00000403500,1.92000,0.20800
,,,-0.00000403400,1.92000,0.20800
,,,-0.00000403300,1.92000,0.20800
,,,-0.00000403200,1.92000,0.20800
,,,-0.00000403100,1.92000,0.20800
,,,-0.00000403000,1.92000,0.20800
