Oszilloskop Messungen 19.4.23/WA000018.CSV

Record Length,9216,,Source,CH1,CH2
Sample Interval,0.0000000130208,,Second,Volt,Volt
Vertical Units,CH1:V CH2:V,,-0.00009215999,3.52000,0.31200
Vertical Scale,CH1:2.00 CH2:0.20,,-0.00009213999,3.36000,0.30400
Vertical Offset,CH1:0.00 CH2:-0.01600,,-0.00009212000,3.44000,0.30400
Horizontal Units,s,,-0.00009209999,3.44000,0.29600
Horizontal Scale,0.0000100000,,-0.00009207999,3.36000,0.30400
Model Number,WaveAce202,,-0.00009205999,3.36000,0.31200
Serial Number,LCRY2104C00378,,-0.00009204000,3.36000,0.30400
Software Version,2.06.02.11,,-0.00009201999,3.36000,0.30400
,,,-0.00009199999,3.28000,0.29600
,,,-0.00009197999,3.28000,0.29600
,,,-0.00009195999,3.28000,0.31200
,,,-0.00009193999,3.28000,0.30400
,,,-0.00009191999,3.28000,0.28800
,,,-0.00009189999,3.28000,0.28800
,,,-0.00009187999,3.20000,0.29600
,,,-0.00009185999,3.20000,0.28800
,,,-0.00009183999,3.20000,0.28800
,,,-0.00009181999,3.20000,0.28800
,,,-0.00009179999,3.20000,0.28800
,,,-0.00009177999,3.20000,0.28800
,,,-0.00009175999,3.12000,0.28000
,,,-0.00009173999,3.12000,0.28000
,,,-0.00009171999,3.12000,0.28000
,,,-0.00009169999,3.12000,0.28000
,,,-0.00009167999,3.12000,0.28000
,,,-0.00009165999,3.04000,0.28000
,,,-0.00009163999,3.04000,0.28000
,,,-0.00009161999,3.04000,0.26400
,,,-0.00009159999,3.04000,0.27200
,,,-0.00009158000,3.04000,0.28000
,,,-0.00009155999,3.04000,0.26400
,,,-0.00009153999,3.04000,0.26400
,,,-0.00009151999,2.96000,0.26400
,,,-0.00009150000,2.96000,0.26400
,,,-0.00009147999,2.96000,0.26400
,,,-0.00009145999,2.96000,0.26400
,,,-0.00009143999,2.96000,0.26400
,,,-0.00009142000,2.88000,0.25600
,,,-0.00009140000,2.88000,0.26400
,,,-0.00009137999,2.88000,0.25600
,,,-0.00009135999,2.88000,0.27200
,,,-0.00009133999,2.80000,0.25600
,,,-0.00009132000,2.80000,0.24000
,,,-0.00009129999,2.80000,0.25600
,,,-0.00009127999,2.80000,0.24800
,,,-0.00009125999,2.80000,0.23200
,,,-0.00009124000,2.80000,0.24800
,,,-0.00009122000,2.72000,0.24000
,,,-0.00009119999,2.72000,0.24000
,,,-0.00009117999,2.72000,0.24000
,,,-0.00009115999,2.72000,0.24800
,,,-0.00009113999,2.72000,0.24800
,,,-0.00009111999,2.64000,0.24000
,,,-0.00009109999,2.64000,0.24000
,,,-0.00009107999,2.64000,0.23200
,,,-0.00009105999,2.64000,0.23200
,,,-0.00009103999,2.56000,0.23200
,,,-0.00009101999,2.56000,0.22400
,,,-0.00009099999,2.56000,0.22400
,,,-0.00009097999,2.56000,0.22400
,,,-0.00009095999,2.48000,0.22400
,,,-0.00009093999,2.48000,0.21600
,,,-0.00009091999,2.48000,0.20800
,,,-0.00009089999,2.48000,0.22400
,,,-0.00009087999,2.48000,0.21600
,,,-0.00009085999,2.40000,0.21600
,,,-0.00009083999,2.48000,0.21600
,,,-0.00009081999,2.40000,0.20800
,,,-0.00009079999,2.40000,0.20800
,,,-0.00009078000,2.40000,0.20000
,,,-0.00009076000,2.40000,0.20800
,,,-0.00009073999,2.32000,0.20000
,,,-0.00009071999,2.32000,0.19200
,,,-0.00009070000,2.32000,0.20800
,,,-0.00009068000,2.24000,0.20000
,,,-0.00009065999,2.24000,0.20000
,,,-0.00009063999,2.24000,0.20800
,,,-0.00009062000,2.24000,0.19200
,,,-0.00009060000,2.24000,0.19200
,,,-0.00009058000,2.24000,0.20000
,,,-0.00009055999,2.16000,0.19200
,,,-0.00009053999,2.16000,0.19200
,,,-0.00009052000,2.08000,0.19200
,,,-0.00009050000,2.08000,0.19200
,,,-0.00009047999,2.16000,0.19200
,,,-0.00009045999,2.08000,0.19200
,,,-0.00009044000,2.08000,0.19200
,,,-0.00009042000,2.08000,0.17600
,,,-0.00009040000,2.00000,0.19200
,,,-0.00009037999,2.00000,0.18400
,,,-0.00009035999,2.00000,0.19200
,,,-0.00009033999,2.00000,0.18400
,,,-0.00009031999,1.92000,0.18400
,,,-0.00009029999,1.92000,0.17600
,,,-0.00009027999,1.92000,0.18400
,,,-0.00009025999,1.92000,0.17600
,,,-0.00009023999,1.84000,0.16800
,,,-0.00009022000,1.84000,0.16800
,,,-0.00009019999,1.84000,0.16800
,,,-0.00009017999,1.84000,0.16800
,,,-0.00009015999,1.76000,0.17600
,,,-0.00009013999,1.76000,0.16800
,,,-0.00009011999,1.76000,0.16000
,,,-0.00009009999,1.76000,0.16000
,,,-0.00009007999,1.68000,0.16000
,,,-0.00009005999,1.76000,0.16000
,,,-0.00009004000,1.68000,0.15200
,,,-0.00009001999,1.60000,0.14400
,,,-0.00008999999,1.68000,0.15200
,,,-0.00008998000,1.60000,0.14400
,,,-0.00008996000,1.60000,0.14400
,,,-0.00008993999,1.52000,0.14400
,,,-0.00008991999,1.52000,0.15200
,,,-0.00008990000,1.52000,0.13600
,,,-0.00008988000,1.52000,0.13600
,,,-0.00008986000,1.52000,0.13600
,,,-0.00008983999,1.52000,0.14400
,,,-0.00008982000,1.44000,0.13600
,,,-0.00008980000,1.44000,0.12800
,,,-0.00008978000,1.44000,0.13600
,,,-0.00008975999,1.36000,0.12800
,,,-0.00008973999,1.36000,0.13600
,,,-0.00008972000,1.28000,0.12000
,,,-0.00008970000,1.36000,0.12000
,,,-0.00008968000,1.36000,0.12000
,,,-0.00008965999,1.28000,0.12000
,,,-0.00008964000,1.28000,0.12000
,,,-0.00008962000,1.28000,0.11200
,,,-0.00008960000,1.20000,0.12000
,,,-0.00008957999,1.20000,0.11200
,,,-0.00008955999,1.20000,0.11200
,,,-0.00008953999,1.20000,0.11200
,,,-0.00008951999,1.20000,0.10400
,,,-0.00008950000,1.12000,0.10400
,,,-0.00008947999,1.12000,0.10400
,,,-0.00008945999,1.12000,0.09600
,,,-0.00008943999,1.12000,0.09600
,,,-0.00008942000,1.04000,0.09600
,,,-0.00008939999,1.12000,0.10400
,,,-0.00008937999,0.96000,0.09600
,,,-0.00008935999,0.96000,0.08800
,,,-0.00008933999,0.96000,0.08800
,,,-0.00008932000,0.96000,0.08000
,,,-0.00008929999,0.96000,0.08000
,,,-0.00008927999,0.88000,0.08000
,,,-0.00008925999,0.88000,0.07200
,,,-0.00008924000,0.88000,0.07200
,,,-0.00008922000,0.80000,0.06400
,,,-0.00008919999,0.80000,0.08000
,,,-0.00008917999,0.80000,0.08000
,,,-0.00008915999,0.80000,0.08800
,,,-0.00008913999,0.72000,0.08000
,,,-0.00008911999,0.72000,0.07200
,,,-0.00008909999,0.72000,0.07200
,,,-0.00008907999,0.72000,0.06400
,,,-0.00008905999,0.64000,0.07200
,,,-0.00008903999,0.64000,0.06400
,,,-0.00008901999,0.64000,0.06400
,,,-0.00008899999,0.64000,0.07200
,,,-0.00008897999,0.56000,0.06400
,,,-0.00008895999,0.56000,0.06400
,,,-0.00008893999,0.56000,0.06400
,,,-0.00008891999,0.48000,0.05600
,,,-0.00008889999,0.48000,0.06400
,,,-0.00008887999,0.48000,0.05600
,,,-0.00008885999,0.48000,0.05600
,,,-0.00008883999,0.40000,0.04800
,,,-0.00008881999,0.40000,0.04000
,,,-0.00008879999,0.40000,0.04000
,,,-0.00008878000,0.40000,0.04000
,,,-0.00008875999,0.32000,0.04800
,,,-0.00008873999,0.32000,0.04000
,,,-0.00008871999,0.32000,0.03200
,,,-0.00008870000,0.32000,0.04000
,,,-0.00008868000,0.24000,0.03200
,,,-0.00008865999,0.24000,0.04800
,,,-0.00008863999,0.24000,0.03200
,,,-0.00008862000,0.24000,0.02400
,,,-0.00008860000,0.16000,0.02400
,,,-0.00008857999,0.16000,0.02400
,,,-0.00008855999,0.16000,0.02400
,,,-0.00008853999,0.08000,0.01600
,,,-0.00008852000,0.08000,0.00800
,,,-0.00008850000,0.08000,0.02400
,,,-0.00008847999,0.08000,0.01600
,,,-0.00008845999,0.00,0.00800
,,,-0.00008844000,0.00,0.00800
,,,-0.00008842000,0.00,0.00800
,,,-0.00008839999,0.00,0.00800
,,,-0.00008837999,-0.08000,0.00800
,,,-0.00008835999,-0.08000,0.00800
,,,-0.00008833999,-0.08000,0.00800
,,,-0.00008831999,-0.08000,0.00
,,,-0.00008829999,-0.08000,-0.00800
,,,-0.00008827999,-0.08000,0.00
,,,-0.00008825999,-0.08000,-0.00800
,,,-0.00008823999,-0.16000,-0.00800
,,,-0.00008821999,-0.16000,-0.01600
,,,-0.00008819999,-0.16000,0.00
,,,-0.00008817999,-0.16000,-0.01600
,,,-0.00008815999,-0.24000,-0.00800
,,,-0.00008813999,-0.24000,-0.01600
,,,-0.00008811999,-0.24000,-0.01600
,,,-0.00008809999,-0.32000,-0.02400
,,,-0.00008807999,-0.32000,-0.02400
,,,-0.00008805999,-0.32000,-0.03200
,,,-0.00008803999,-0.32000,-0.03200
,,,-0.00008801999,-0.40000,-0.02400
,,,-0.00008799999,-0.40000,-0.03200
,,,-0.00008798000,-0.40000,-0.02400
,,,-0.00008796000,-0.48000,-0.03200
,,,-0.00008793999,-0.48000,-0.04000
,,,-0.00008791999,-0.48000,-0.04000
,,,-0.00008790000,-0.56000,-0.04000
,,,-0.00008788000,-0.56000,-0.04000
,,,-0.00008785999,-0.56000,-0.04800
,,,-0.00008783999,-0.56000,-0.04800
,,,-0.00008782000,-0.64000,-0.05600
,,,-0.00008780000,-0.64000,-0.04800
,,,-0.00008778000,-0.64000,-0.04800
,,,-0.00008775999,-0.72000,-0.04800
,,,-0.00008773999,-0.72000,-0.05600
,,,-0.00008772000,-0.72000,-0.05600
,,,-0.00008770000,-0.80000,-0.05600
,,,-0.00008767999,-0.80000,-0.05600
,,,-0.00008765999,-0.80000,-0.05600
,,,-0.00008764000,-0.80000,-0.05600
,,,-0.00008762000,-0.88000,-0.06400
,,,-0.00008760000,-0.88000,-0.06400
,,,-0.00008757999,-0.88000,-0.06400
,,,-0.00008755999,-0.88000,-0.07200
,,,-0.00008753999,-0.96000,-0.07200
,,,-0.00008751999,-0.96000,-0.07200
,,,-0.00008750000,-0.96000,-0.07200
,,,-0.00008747999,-0.96000,-0.07200
,,,-0.00008745999,-1.04000,-0.07200
,,,-0.00008743999,-1.04000,-0.07200
,,,-0.00008742000,-1.04000,-0.08000
,,,-0.00008739999,-1.04000,-0.08000
,,,-0.00008737999,-1.12000,-0.08000
,,,-0.00008735999,-1.12000,-0.07200
,,,-0.00008733999,-1.12000,-0.08000
,,,-0.00008732000,-1.12000,-0.08800
,,,-0.00008729999,-1.20000,-0.08800
,,,-0.00008727999,-1.20000,-0.10400
,,,-0.00008725999,-1.20000,-0.08800
,,,-0.00008724000,-1.28000,-0.08800
,,,-0.00008721999,-1.28000,-0.10400
,,,-0.00008719999,-1.28000,-0.09600
,,,-0.00008717999,-1.28000,-0.10400
,,,-0.00008715999,-1.36000,-0.10400
,,,-0.00008713999,-1.36000,-0.10400
,,,-0.00008711999,-1.44000,-0.10400
,,,-0.00008709999,-1.44000,-0.11200
,,,-0.00008707999,-1.36000,-0.10400
,,,-0.00008705999,-1.44000,-0.12800
,,,-0.00008703999,-1.44000,-0.12000
,,,-0.00008701999,-1.52000,-0.13600
,,,-0.00008699999,-1.52000,-0.11200
,,,-0.00008697999,-1.60000,-0.12000
,,,-0.00008695999,-1.60000,-0.13600
,,,-0.00008693999,-1.60000,-0.12800
,,,-0.00008691999,-1.60000,-0.14400
,,,-0.00008689999,-1.60000,-0.12800
,,,-0.00008687999,-1.60000,-0.12000
,,,-0.00008685999,-1.68000,-0.13600
,,,-0.00008683999,-1.68000,-0.13600
,,,-0.00008681999,-1.68000,-0.13600
,,,-0.00008679999,-1.68000,-0.13600
,,,-0.00008678000,-1.76000,-0.13600
,,,-0.00008675999,-1.76000,-0.14400
,,,-0.00008673999,-1.76000,-0.14400
,,,-0.00008671999,-1.76000,-0.15200
,,,-0.00008670000,-1.84000,-0.14400
,,,-0.00008667999,-1.84000,-0.13600
,,,-0.00008665999,-1.84000,-0.15200
,,,-0.00008663999,-1.84000,-0.15200
,,,-0.00008662000,-1.92000,-0.16000
,,,-0.00008660000,-1.92000,-0.16000
,,,-0.00008657999,-1.92000,-0.13600
,,,-0.00008655999,-2.00000,-0.16000
,,,-0.00008653999,-2.00000,-0.16800
,,,-0.00008652000,-2.00000,-0.16000
,,,-0.00008649999,-2.00000,-0.16800
,,,-0.00008647999,-2.00000,-0.15200
,,,-0.00008645999,-2.08000,-0.16800
,,,-0.00008644000,-2.08000,-0.16800
,,,-0.00008642000,-2.08000,-0.17600
,,,-0.00008639999,-2.08000,-0.17600
,,,-0.00008637999,-2.16000,-0.16000
,,,-0.00008635999,-2.16000,-0.18400
,,,-0.00008633999,-2.16000,-0.17600
,,,-0.00008631999,-2.16000,-0.17600
,,,-0.00008629999,-2.24000,-0.18400
,,,-0.00008627999,-2.24000,-0.17600
,,,-0.00008625999,-2.24000,-0.18400
,,,-0.00008623999,-2.24000,-0.18400
,,,-0.00008621999,-2.32000,-0.18400
,,,-0.00008619999,-2.24000,-0.18400
,,,-0.00008617999,-2.32000,-0.17600
,,,-0.00008615999,-2.32000,-0.18400
,,,-0.00008613999,-2.40000,-0.18400
,,,-0.00008611999,-2.40000,-0.19200
,,,-0.00008609999,-2.40000,-0.19200
,,,-0.00008607999,-2.40000,-0.18400
,,,-0.00008605999,-2.48000,-0.19200
,,,-0.00008603999,-2.48000,-0.18400
,,,-0.00008601999,-2.48000,-0.20000
,,,-0.00008599999,-2.48000,-0.19200
,,,-0.00008598000,-2.56000,-0.18400
,,,-0.00008595999,-2.56000,-0.20800
,,,-0.00008593999,-2.56000,-0.20800
,,,-0.00008591999,-2.56000,-0.20800
,,,-0.00008590000,-2.56000,-0.20000
,,,-0.00008588000,-2.56000,-0.19200
,,,-0.00008585999,-2.64000,-0.20800
,,,-0.00008583999,-2.64000,-0.20800
,,,-0.00008582000,-2.72000,-0.21600
,,,-0.00008580000,-2.64000,-0.21600
,,,-0.00008578000,-2.72000,-0.19200
,,,-0.00008575999,-2.72000,-0.23200
,,,-0.00008573999,-2.72000,-0.22400
,,,-0.00008572000,-2.72000,-0.22400
,,,-0.00008570000,-2.80000,-0.22400
,,,-0.00008567999,-2.80000,-0.22400
,,,-0.00008565999,-2.80000,-0.21600
,,,-0.00008564000,-2.80000,-0.21600
,,,-0.00008562000,-2.80000,-0.22400
,,,-0.00008560000,-2.80000,-0.23200
,,,-0.00008557999,-2.88000,-0.22400
,,,-0.00008555999,-2.88000,-0.23200
,,,-0.00008553999,-2.88000,-0.22400
,,,-0.00008551999,-2.88000,-0.23200
,,,-0.00008549999,-2.96000,-0.24000
,,,-0.00008547999,-2.96000,-0.24000
,,,-0.00008545999,-2.96000,-0.24000
,,,-0.00008543999,-2.96000,-0.24000
,,,-0.00008542000,-3.04000,-0.24800
,,,-0.00008539999,-3.04000,-0.24800
,,,-0.00008537999,-3.04000,-0.23200
,,,-0.00008535999,-3.04000,-0.24800
,,,-0.00008533999,-3.12000,-0.24800
,,,-0.00008531999,-3.12000,-0.24800
,,,-0.00008529999,-3.12000,-0.25600
,,,-0.00008527999,-3.12000,-0.25600
,,,-0.00008525999,-3.20000,-0.24800
,,,-0.00008524000,-3.12000,-0.24800
,,,-0.00008521999,-3.12000,-0.25600
,,,-0.00008519999,-3.20000,-0.25600
,,,-0.00008518000,-3.20000,-0.26400
,,,-0.00008516000,-3.20000,-0.26400
,,,-0.00008513999,-3.28000,-0.26400
,,,-0.00008511999,-3.28000,-0.26400
,,,-0.00008510000,-3.28000,-0.26400
,,,-0.00008508000,-3.28000,-0.27200
,,,-0.00008506000,-3.28000,-0.25600
,,,-0.00008503999,-3.28000,-0.27200
,,,-0.00008502000,-3.36000,-0.27200
,,,-0.00008500000,-3.28000,-0.27200
,,,-0.00008498000,-3.36000,-0.26400
,,,-0.00008495999,-3.36000,-0.27200
,,,-0.00008493999,-3.36000,-0.28000
,,,-0.00008492000,-3.36000,-0.28800
,,,-0.00008490000,-3.36000,-0.28800
,,,-0.00008488000,-3.44000,-0.27200
,,,-0.00008485999,-3.44000,-0.28800
,,,-0.00008484000,-3.44000,-0.28800
,,,-0.00008482000,-3.44000,-0.28000
,,,-0.00008480000,-3.44000,-0.29600
,,,-0.00008477999,-3.52000,-0.28800
,,,-0.00008475999,-3.44000,-0.28800
,,,-0.00008473999,-3.52000,-0.29600
,,,-0.00008471999,-3.52000,-0.29600
,,,-0.00008470000,-3.52000,-0.29600
,,,-0.00008467999,-3.52000,-0.28800
,,,-0.00008465999,-3.52000,-0.30400
,,,-0.00008463999,-3.60000,-0.29600
,,,-0.00008462000,-3.60000,-0.30400
,,,-0.00008459999,-3.60000,-0.30400
,,,-0.00008457999,-3.60000,-0.30400
,,,-0.00008455999,-3.60000,-0.30400
,,,-0.00008453999,-3.68000,-0.29600
,,,-0.00008452000,-3.68000,-0.30400
,,,-0.00008449999,-3.68000,-0.30400
,,,-0.00008447999,-3.68000,-0.30400
,,,-0.00008445999,-3.68000,-0.31200
,,,-0.00008444000,-3.68000,-0.30400
,,,-0.00008441999,-3.68000,-0.30400
,,,-0.00008439999,-3.76000,-0.30400
,,,-0.00008437999,-3.76000,-0.30400
,,,-0.00008435999,-3.76000,-0.30400
,,,-0.00008433999,-3.76000,-0.31200
,,,-0.00008431999,-3.84000,-0.31200
,,,-0.00008429999,-3.84000,-0.30400
,,,-0.00008427999,-3.76000,-0.31200
,,,-0.00008425999,-3.84000,-0.30400
,,,-0.00008423999,-3.84000,-0.31200
,,,-0.00008421999,-3.84000,-0.31200
,,,-0.00008419999,-3.84000,-0.31200
,,,-0.00008417999,-3.84000,-0.32800
,,,-0.00008415999,-3.84000,-0.31200
,,,-0.00008413999,-3.92000,-0.32000
,,,-0.00008411999,-3.92000,-0.32800
,,,-0.00008409999,-3.84000,-0.32800
,,,-0.00008407999,-3.92000,-0.30400
,,,-0.00008405999,-3.92000,-0.32000
,,,-0.00008403999,-3.92000,-0.32000
,,,-0.00008401999,-3.92000,-0.32800
,,,-0.00008399999,-4.00000,-0.32800
,,,-0.00008398000,-4.00000,-0.33600
,,,-0.00008395999,-4.00000,-0.32000
,,,-0.00008393999,-4.00000,-0.32800
,,,-0.00008391999,-4.00000,-0.32800
,,,-0.00008390000,-4.08000,-0.33600
,,,-0.00008388000,-4.00000,-0.32000
,,,-0.00008385999,-4.00000,-0.33600
,,,-0.00008383999,-4.00000,-0.33600
,,,-0.00008382000,-4.00000,-0.33600
,,,-0.00008380000,-4.00000,-0.33600
,,,-0.00008377999,-4.08000,-0.32800
,,,-0.00008375999,-4.00000,-0.33600
,,,-0.00008373999,-4.08000,-0.33600
,,,-0.00008372000,-4.08000,-0.33600
,,,-0.00008370000,-4.08000,-0.33600
,,,-0.00008367999,-4.08000,-0.33600
,,,-0.00008365999,-4.08000,-0.33600
,,,-0.00008364000,-4.08000,-0.33600
,,,-0.00008362000,-4.08000,-0.34400
,,,-0.00008359999,-4.08000,-0.34400
,,,-0.00008357999,-4.08000,-0.34400
,,,-0.00008355999,-4.08000,-0.34400
,,,-0.00008353999,-4.08000,-0.34400
,,,-0.00008351999,-4.08000,-0.35200
,,,-0.00008349999,-4.08000,-0.35200
,,,-0.00008347999,-4.08000,-0.34400
,,,-0.00008345999,-4.08000,-0.34400
,,,-0.00008343999,-4.08000,-0.34400
,,,-0.00008341999,-4.16000,-0.35200
,,,-0.00008339999,-4.16000,-0.35200
,,,-0.00008337999,-4.16000,-0.35200
,,,-0.00008335999,-4.16000,-0.34400
,,,-0.00008333999,-4.16000,-0.34400
,,,-0.00008331999,-4.16000,-0.36000
,,,-0.00008329999,-4.16000,-0.35200
,,,-0.00008327999,-4.16000,-0.36800
,,,-0.00008325999,-4.16000,-0.35200
,,,-0.00008323999,-4.16000,-0.35200
,,,-0.00008321999,-4.16000,-0.36000
,,,-0.00008319999,-4.16000,-0.36000
,,,-0.00008318000,-4.16000,-0.34400
,,,-0.00008316000,-4.16000,-0.36000
,,,-0.00008313999,-4.24000,-0.36000
,,,-0.00008311999,-4.16000,-0.36000
,,,-0.00008310000,-4.16000,-0.36000
,,,-0.00008308000,-4.24000,-0.35200
,,,-0.00008305999,-4.24000,-0.36800
,,,-0.00008303999,-4.24000,-0.35200
,,,-0.00008302000,-4.24000,-0.36000
,,,-0.00008300000,-4.24000,-0.36000
,,,-0.00008298000,-4.24000,-0.36000
,,,-0.00008295999,-4.24000,-0.36000
,,,-0.00008293999,-4.24000,-0.36000
,,,-0.00008292000,-4.24000,-0.36000
,,,-0.00008290000,-4.24000,-0.36800
,,,-0.00008287999,-4.24000,-0.37600
,,,-0.00008285999,-4.24000,-0.36000
,,,-0.00008284000,-4.24000,-0.36800
,,,-0.00008282000,-4.32000,-0.37600
,,,-0.00008280000,-4.24000,-0.36800
,,,-0.00008277999,-4.32000,-0.37600
,,,-0.00008275999,-4.24000,-0.36800
,,,-0.00008273999,-4.32000,-0.36000
,,,-0.00008271999,-4.32000,-0.36800
,,,-0.00008269999,-4.32000,-0.37600
,,,-0.00008267999,-4.32000,-0.36800
,,,-0.00008265999,-4.32000,-0.36000
,,,-0.00008263999,-4.24000,-0.36800
,,,-0.00008262000,-4.32000,-0.37600
,,,-0.00008259999,-4.32000,-0.36000
,,,-0.00008257999,-4.32000,-0.36000
,,,-0.00008255999,-4.32000,-0.36800
,,,-0.00008253999,-4.32000,-0.36800
,,,-0.00008251999,-4.32000,-0.36800
,,,-0.00008249999,-4.32000,-0.36800
,,,-0.00008247999,-4.32000,-0.37600
,,,-0.00008245999,-4.32000,-0.36800
,,,-0.00008244000,-4.32000,-0.37600
,,,-0.00008241999,-4.32000,-0.36800
,,,-0.00008239999,-4.32000,-0.36800
,,,-0.00008238000,-4.32000,-0.36800
,,,-0.00008236000,-4.32000,-0.36000
,,,-0.00008234000,-4.32000,-0.37600
,,,-0.00008231999,-4.32000,-0.37600
,,,-0.00008230000,-4.32000,-0.36800
,,,-0.00008228000,-4.32000,-0.36800
,,,-0.00008226000,-4.32000,-0.36800
,,,-0.00008223999,-4.32000,-0.36800
,,,-0.00008222000,-4.32000,-0.37600
,,,-0.00008220000,-4.32000,-0.37600
,,,-0.00008218000,-4.32000,-0.36800
,,,-0.00008216000,-4.32000,-0.36800
,,,-0.00008213999,-4.32000,-0.36800
,,,-0.00008212000,-4.32000,-0.37600
,,,-0.00008210000,-4.32000,-0.36800
,,,-0.00008208000,-4.32000,-0.37600
,,,-0.00008205999,-4.40000,-0.37600
,,,-0.00008204000,-4.32000,-0.37600
,,,-0.00008202000,-4.32000,-0.37600
,,,-0.00008200000,-4.32000,-0.36800
,,,-0.00008198000,-4.32000,-0.36800
,,,-0.00008195999,-4.32000,-0.37600
,,,-0.00008193999,-4.32000,-0.36800
,,,-0.00008191999,-4.32000,-0.38400
,,,-0.00008190000,-4.32000,-0.36800
,,,-0.00008187999,-4.32000,-0.36000
,,,-0.00008185999,-4.32000,-0.37600
,,,-0.00008183999,-4.32000,-0.36800
,,,-0.00008182000,-4.32000,-0.38400
,,,-0.00008180000,-4.32000,-0.36800
,,,-0.00008177999,-4.32000,-0.38400
,,,-0.00008175999,-4.32000,-0.36800
,,,-0.00008173999,-4.32000,-0.36800
,,,-0.00008172000,-4.32000,-0.37600
,,,-0.00008169999,-4.32000,-0.36800
,,,-0.00008167999,-4.32000,-0.38400
,,,-0.00008165999,-4.32000,-0.36800
,,,-0.00008164000,-4.32000,-0.37600
,,,-0.00008162000,-4.32000,-0.37600
,,,-0.00008159999,-4.32000,-0.37600
,,,-0.00008157999,-4.32000,-0.38400
,,,-0.00008155999,-4.32000,-0.36800
,,,-0.00008153999,-4.32000,-0.36800
,,,-0.00008151999,-4.32000,-0.37600
,,,-0.00008149999,-4.32000,-0.36000
,,,-0.00008147999,-4.32000,-0.37600
,,,-0.00008145999,-4.32000,-0.36800
,,,-0.00008143999,-4.24000,-0.36000
,,,-0.00008141999,-4.32000,-0.37600
,,,-0.00008139999,-4.32000,-0.36800
,,,-0.00008137999,-4.32000,-0.36800
,,,-0.00008135999,-4.24000,-0.36000
,,,-0.00008133999,-4.32000,-0.36000
,,,-0.00008131999,-4.24000,-0.36800
,,,-0.00008129999,-4.24000,-0.36800
,,,-0.00008127999,-4.24000,-0.36000
,,,-0.00008125999,-4.24000,-0.36000
,,,-0.00008123999,-4.24000,-0.36000
,,,-0.00008121999,-4.24000,-0.36800
,,,-0.00008119999,-4.16000,-0.36000
,,,-0.00008118000,-4.24000,-0.35200
,,,-0.00008115999,-4.24000,-0.36000
,,,-0.00008113999,-4.16000,-0.35200
,,,-0.00008111999,-4.24000,-0.37600
,,,-0.00008110000,-4.24000,-0.35200
,,,-0.00008108000,-4.24000,-0.36000
,,,-0.00008105999,-4.16000,-0.36000
,,,-0.00008103999,-4.16000,-0.36000
,,,-0.00008102000,-4.16000,-0.36000
