Oszilloskop Messungen 19.4.23/WA000016.CSV

Record Length,9216,,Source,CH1,CH2
Sample Interval,0.0000000130208,,Second,Volt,Volt
Vertical Units,CH1:V CH2:V,,-0.00009215999,3.84000,0.33600
Vertical Scale,CH1:2.00 CH2:0.20,,-0.00009213999,3.84000,0.34400
Vertical Offset,CH1:0.00 CH2:-0.01600,,-0.00009212000,3.84000,0.35200
Horizontal Units,s,,-0.00009209999,3.84000,0.34400
Horizontal Scale,0.0000100000,,-0.00009207999,3.84000,0.34400
Model Number,WaveAce202,,-0.00009205999,3.84000,0.33600
Serial Number,LCRY2104C00378,,-0.00009204000,3.84000,0.34400
Software Version,2.06.02.11,,-0.00009201999,3.84000,0.34400
,,,-0.00009199999,3.84000,0.35200
,,,-0.00009197999,3.84000,0.34400
,,,-0.00009195999,3.84000,0.34400
,,,-0.00009193999,3.84000,0.33600
,,,-0.00009191999,3.84000,0.35200
,,,-0.00009189999,3.84000,0.34400
,,,-0.00009187999,3.84000,0.33600
,,,-0.00009185999,3.92000,0.34400
,,,-0.00009183999,3.92000,0.35200
,,,-0.00009181999,3.84000,0.34400
,,,-0.00009179999,3.92000,0.35200
,,,-0.00009177999,3.84000,0.32800
,,,-0.00009175999,3.92000,0.35200
,,,-0.00009173999,3.92000,0.35200
,,,-0.00009171999,3.92000,0.35200
,,,-0.00009169999,3.92000,0.34400
,,,-0.00009167999,3.92000,0.33600
,,,-0.00009165999,3.92000,0.35200
,,,-0.00009163999,3.92000,0.34400
,,,-0.00009161999,3.92000,0.36000
,,,-0.00009159999,3.92000,0.35200
,,,-0.00009158000,3.92000,0.35200
,,,-0.00009155999,3.92000,0.34400
,,,-0.00009153999,3.92000,0.35200
,,,-0.00009151999,3.92000,0.36000
,,,-0.00009150000,3.92000,0.34400
,,,-0.00009147999,3.92000,0.36000
,,,-0.00009145999,3.92000,0.35200
,,,-0.00009143999,4.00000,0.36000
,,,-0.00009142000,3.92000,0.36000
,,,-0.00009140000,4.00000,0.34400
,,,-0.00009137999,3.92000,0.34400
,,,-0.00009135999,4.00000,0.36000
,,,-0.00009133999,3.92000,0.35200
,,,-0.00009132000,3.92000,0.36000
,,,-0.00009129999,3.92000,0.35200
,,,-0.00009127999,4.00000,0.35200
,,,-0.00009125999,4.00000,0.35200
,,,-0.00009124000,4.00000,0.36000
,,,-0.00009122000,4.00000,0.36000
,,,-0.00009119999,4.00000,0.36000
,,,-0.00009117999,4.00000,0.35200
,,,-0.00009115999,4.00000,0.36000
,,,-0.00009113999,4.00000,0.36000
,,,-0.00009111999,4.00000,0.36000
,,,-0.00009109999,4.00000,0.36000
,,,-0.00009107999,4.00000,0.36800
,,,-0.00009105999,4.00000,0.35200
,,,-0.00009103999,4.00000,0.36000
,,,-0.00009101999,4.00000,0.36000
,,,-0.00009099999,4.00000,0.36000
,,,-0.00009097999,4.00000,0.36800
,,,-0.00009095999,4.00000,0.36000
,,,-0.00009093999,4.00000,0.36000
,,,-0.00009091999,4.08000,0.37600
,,,-0.00009089999,4.00000,0.36000
,,,-0.00009087999,4.08000,0.36000
,,,-0.00009085999,4.00000,0.36000
,,,-0.00009083999,4.08000,0.36000
,,,-0.00009081999,4.00000,0.36000
,,,-0.00009079999,4.08000,0.36000
,,,-0.00009078000,4.00000,0.36000
,,,-0.00009076000,4.08000,0.36800
,,,-0.00009073999,4.00000,0.36000
,,,-0.00009071999,4.08000,0.35200
,,,-0.00009070000,4.00000,0.36000
,,,-0.00009068000,4.08000,0.35200
,,,-0.00009065999,4.00000,0.36000
,,,-0.00009063999,4.08000,0.36000
,,,-0.00009062000,4.00000,0.35200
,,,-0.00009060000,4.08000,0.36000
,,,-0.00009058000,4.08000,0.36000
,,,-0.00009055999,4.08000,0.36000
,,,-0.00009053999,4.08000,0.36000
,,,-0.00009052000,4.08000,0.35200
,,,-0.00009050000,4.08000,0.35200
,,,-0.00009047999,4.08000,0.36000
,,,-0.00009045999,4.08000,0.36000
,,,-0.00009044000,4.08000,0.36000
,,,-0.00009042000,4.08000,0.36800
,,,-0.00009040000,4.16000,0.36000
,,,-0.00009037999,4.08000,0.36000
,,,-0.00009035999,4.08000,0.36000
,,,-0.00009033999,4.08000,0.36000
,,,-0.00009031999,4.08000,0.36800
,,,-0.00009029999,4.08000,0.36000
,,,-0.00009027999,4.08000,0.36000
,,,-0.00009025999,4.16000,0.36000
,,,-0.00009023999,4.08000,0.36000
,,,-0.00009022000,4.08000,0.36800
,,,-0.00009019999,4.08000,0.36800
,,,-0.00009017999,4.08000,0.36000
,,,-0.00009015999,4.08000,0.36000
,,,-0.00009013999,4.08000,0.36000
,,,-0.00009011999,4.08000,0.36000
,,,-0.00009009999,4.16000,0.36800
,,,-0.00009007999,4.08000,0.36000
,,,-0.00009005999,4.08000,0.36000
,,,-0.00009004000,4.16000,0.36800
,,,-0.00009001999,4.16000,0.36000
,,,-0.00008999999,4.16000,0.36800
,,,-0.00008998000,4.08000,0.36800
,,,-0.00008996000,4.08000,0.37600
,,,-0.00008993999,4.08000,0.36800
,,,-0.00008991999,4.16000,0.37600
,,,-0.00008990000,4.08000,0.36800
,,,-0.00008988000,4.16000,0.36800
,,,-0.00008986000,4.16000,0.36800
,,,-0.00008983999,4.16000,0.35200
,,,-0.00008982000,4.16000,0.36000
,,,-0.00008980000,4.16000,0.36000
,,,-0.00008978000,4.16000,0.36000
,,,-0.00008975999,4.16000,0.36000
,,,-0.00008973999,4.16000,0.36000
,,,-0.00008972000,4.16000,0.36000
,,,-0.00008970000,4.16000,0.36800
,,,-0.00008968000,4.16000,0.36000
,,,-0.00008965999,4.16000,0.36800
,,,-0.00008964000,4.24000,0.36800
,,,-0.00008962000,4.08000,0.36800
,,,-0.00008960000,4.16000,0.36800
,,,-0.00008957999,4.16000,0.36800
,,,-0.00008955999,4.16000,0.37600
,,,-0.00008953999,4.16000,0.36800
,,,-0.00008951999,4.16000,0.36800
,,,-0.00008950000,4.16000,0.36800
,,,-0.00008947999,4.16000,0.36800
,,,-0.00008945999,4.16000,0.36800
,,,-0.00008943999,4.16000,0.36800
,,,-0.00008942000,4.16000,0.36000
,,,-0.00008939999,4.16000,0.36800
,,,-0.00008937999,4.16000,0.36800
,,,-0.00008935999,4.16000,0.36000
,,,-0.00008933999,4.16000,0.37600
,,,-0.00008932000,4.16000,0.36800
,,,-0.00008929999,4.16000,0.36800
,,,-0.00008927999,4.16000,0.36800
,,,-0.00008925999,4.16000,0.36800
,,,-0.00008924000,4.16000,0.36800
,,,-0.00008922000,4.16000,0.37600
,,,-0.00008919999,4.16000,0.36800
,,,-0.00008917999,4.16000,0.36800
,,,-0.00008915999,4.16000,0.36800
,,,-0.00008913999,4.16000,0.36800
,,,-0.00008911999,4.16000,0.36800
,,,-0.00008909999,4.16000,0.36800
,,,-0.00008907999,4.16000,0.36000
,,,-0.00008905999,4.16000,0.36800
,,,-0.00008903999,4.16000,0.36000
,,,-0.00008901999,4.16000,0.36800
,,,-0.00008899999,4.16000,0.37600
,,,-0.00008897999,4.16000,0.36000
,,,-0.00008895999,4.16000,0.37600
,,,-0.00008893999,4.16000,0.36000
,,,-0.00008891999,4.16000,0.36000
,,,-0.00008889999,4.16000,0.36800
,,,-0.00008887999,4.16000,0.36800
,,,-0.00008885999,4.16000,0.36000
,,,-0.00008883999,4.16000,0.36800
,,,-0.00008881999,4.16000,0.36800
,,,-0.00008879999,4.16000,0.37600
,,,-0.00008878000,4.16000,0.36000
,,,-0.00008875999,4.16000,0.35200
,,,-0.00008873999,4.16000,0.36000
,,,-0.00008871999,4.16000,0.36800
,,,-0.00008870000,4.16000,0.37600
,,,-0.00008868000,4.16000,0.36800
,,,-0.00008865999,4.16000,0.37600
,,,-0.00008863999,4.16000,0.36000
,,,-0.00008862000,4.16000,0.36800
,,,-0.00008860000,4.16000,0.36800
,,,-0.00008857999,4.16000,0.36000
,,,-0.00008855999,4.16000,0.37600
,,,-0.00008853999,4.16000,0.36000
,,,-0.00008852000,4.16000,0.36800
,,,-0.00008850000,4.16000,0.36800
,,,-0.00008847999,4.16000,0.36000
,,,-0.00008845999,4.16000,0.37600
,,,-0.00008844000,4.16000,0.36800
,,,-0.00008842000,4.16000,0.37600
,,,-0.00008839999,4.16000,0.36000
,,,-0.00008837999,4.16000,0.36000
,,,-0.00008835999,4.16000,0.36800
,,,-0.00008833999,4.16000,0.36800
,,,-0.00008831999,4.16000,0.36000
,,,-0.00008829999,4.16000,0.36800
,,,-0.00008827999,4.16000,0.36000
,,,-0.00008825999,4.16000,0.36000
,,,-0.00008823999,4.16000,0.36800
,,,-0.00008821999,4.16000,0.36000
,,,-0.00008819999,4.16000,0.36800
,,,-0.00008817999,4.16000,0.36800
,,,-0.00008815999,4.08000,0.36800
,,,-0.00008813999,4.16000,0.36800
,,,-0.00008811999,4.08000,0.36800
,,,-0.00008809999,4.08000,0.36000
,,,-0.00008807999,4.08000,0.36800
,,,-0.00008805999,4.08000,0.37600
,,,-0.00008803999,4.08000,0.36000
,,,-0.00008801999,4.08000,0.36000
,,,-0.00008799999,4.16000,0.36800
,,,-0.00008798000,4.08000,0.36000
,,,-0.00008796000,4.16000,0.36800
,,,-0.00008793999,4.08000,0.36800
,,,-0.00008791999,4.16000,0.36800
,,,-0.00008790000,4.08000,0.36000
,,,-0.00008788000,4.08000,0.35200
,,,-0.00008785999,4.16000,0.36800
,,,-0.00008783999,4.08000,0.36000
,,,-0.00008782000,4.08000,0.36800
,,,-0.00008780000,4.08000,0.36800
,,,-0.00008778000,4.08000,0.36000
,,,-0.00008775999,4.08000,0.36800
,,,-0.00008773999,4.08000,0.36800
,,,-0.00008772000,4.08000,0.36800
,,,-0.00008770000,4.16000,0.36000
,,,-0.00008767999,4.08000,0.36000
,,,-0.00008765999,4.08000,0.36800
,,,-0.00008764000,4.08000,0.36000
,,,-0.00008762000,4.08000,0.36800
,,,-0.00008760000,4.08000,0.36000
,,,-0.00008757999,4.08000,0.36800
,,,-0.00008755999,4.08000,0.36000
,,,-0.00008753999,4.08000,0.36800
,,,-0.00008751999,4.08000,0.36800
,,,-0.00008750000,4.08000,0.36000
,,,-0.00008747999,4.08000,0.35200
,,,-0.00008745999,4.08000,0.36000
,,,-0.00008743999,4.08000,0.36000
,,,-0.00008742000,4.08000,0.36000
,,,-0.00008739999,4.08000,0.36000
,,,-0.00008737999,4.08000,0.35200
,,,-0.00008735999,4.08000,0.36800
,,,-0.00008733999,4.08000,0.36000
,,,-0.00008732000,4.08000,0.36000
,,,-0.00008729999,4.08000,0.35200
,,,-0.00008727999,4.08000,0.35200
,,,-0.00008725999,4.08000,0.36000
,,,-0.00008724000,4.08000,0.36000
,,,-0.00008721999,4.08000,0.35200
,,,-0.00008719999,4.08000,0.36000
,,,-0.00008717999,4.00000,0.35200
,,,-0.00008715999,4.08000,0.36000
,,,-0.00008713999,4.00000,0.36000
,,,-0.00008711999,4.08000,0.37600
,,,-0.00008709999,4.00000,0.36000
,,,-0.00008707999,4.08000,0.36800
,,,-0.00008705999,4.00000,0.36000
,,,-0.00008703999,4.00000,0.36000
,,,-0.00008701999,4.00000,0.36000
,,,-0.00008699999,4.00000,0.36800
,,,-0.00008697999,4.00000,0.35200
,,,-0.00008695999,4.00000,0.36000
,,,-0.00008693999,4.00000,0.36000
,,,-0.00008691999,4.00000,0.36000
,,,-0.00008689999,4.00000,0.36000
,,,-0.00008687999,4.00000,0.36000
,,,-0.00008685999,4.00000,0.36000
,,,-0.00008683999,4.00000,0.36800
,,,-0.00008681999,4.00000,0.36000
,,,-0.00008679999,4.00000,0.35200
,,,-0.00008678000,4.00000,0.36000
,,,-0.00008675999,4.00000,0.35200
,,,-0.00008673999,4.00000,0.35200
,,,-0.00008671999,4.00000,0.35200
,,,-0.00008670000,4.00000,0.35200
,,,-0.00008667999,4.00000,0.35200
,,,-0.00008665999,4.00000,0.36000
,,,-0.00008663999,4.00000,0.35200
,,,-0.00008662000,3.92000,0.35200
,,,-0.00008660000,4.00000,0.35200
,,,-0.00008657999,3.92000,0.34400
,,,-0.00008655999,3.92000,0.34400
,,,-0.00008653999,3.92000,0.35200
,,,-0.00008652000,4.00000,0.34400
,,,-0.00008649999,4.00000,0.36000
,,,-0.00008647999,4.00000,0.35200
,,,-0.00008645999,3.92000,0.34400
,,,-0.00008644000,3.92000,0.35200
,,,-0.00008642000,3.92000,0.34400
,,,-0.00008639999,3.92000,0.35200
,,,-0.00008637999,3.92000,0.33600
,,,-0.00008635999,3.92000,0.35200
,,,-0.00008633999,3.92000,0.34400
,,,-0.00008631999,3.92000,0.34400
,,,-0.00008629999,3.84000,0.34400
,,,-0.00008627999,3.92000,0.34400
,,,-0.00008625999,3.92000,0.34400
,,,-0.00008623999,3.92000,0.34400
,,,-0.00008621999,3.92000,0.34400
,,,-0.00008619999,3.92000,0.35200
,,,-0.00008617999,3.92000,0.33600
,,,-0.00008615999,3.92000,0.34400
,,,-0.00008613999,3.84000,0.34400
,,,-0.00008611999,3.92000,0.33600
,,,-0.00008609999,3.92000,0.34400
,,,-0.00008607999,3.84000,0.33600
,,,-0.00008605999,3.84000,0.33600
,,,-0.00008603999,3.84000,0.34400
,,,-0.00008601999,3.84000,0.34400
,,,-0.00008599999,3.92000,0.35200
,,,-0.00008598000,3.84000,0.34400
,,,-0.00008595999,3.84000,0.34400
,,,-0.00008593999,3.84000,0.34400
,,,-0.00008591999,3.84000,0.34400
,,,-0.00008590000,3.84000,0.34400
,,,-0.00008588000,3.84000,0.34400
,,,-0.00008585999,3.84000,0.33600
,,,-0.00008583999,3.84000,0.34400
,,,-0.00008582000,3.84000,0.34400
,,,-0.00008580000,3.84000,0.33600
,,,-0.00008578000,3.84000,0.34400
,,,-0.00008575999,3.84000,0.32800
,,,-0.00008573999,3.84000,0.34400
,,,-0.00008572000,3.84000,0.33600
,,,-0.00008570000,3.84000,0.33600
,,,-0.00008567999,3.84000,0.33600
,,,-0.00008565999,3.84000,0.33600
,,,-0.00008564000,3.84000,0.33600
,,,-0.00008562000,3.84000,0.32800
,,,-0.00008560000,3.84000,0.33600
,,,-0.00008557999,3.84000,0.32800
,,,-0.00008555999,3.84000,0.33600
,,,-0.00008553999,3.84000,0.33600
,,,-0.00008551999,3.84000,0.33600
,,,-0.00008549999,3.84000,0.33600
,,,-0.00008547999,3.84000,0.32800
,,,-0.00008545999,3.84000,0.33600
,,,-0.00008543999,3.84000,0.32800
,,,-0.00008542000,3.84000,0.32800
,,,-0.00008539999,3.84000,0.32800
,,,-0.00008537999,3.84000,0.32800
,,,-0.00008535999,3.84000,0.32800
,,,-0.00008533999,3.76000,0.32800
,,,-0.00008531999,3.76000,0.32800
,,,-0.00008529999,3.76000,0.32800
,,,-0.00008527999,3.84000,0.32000
,,,-0.00008525999,3.76000,0.32800
,,,-0.00008524000,3.76000,0.32000
,,,-0.00008521999,3.76000,0.34400
,,,-0.00008519999,3.76000,0.32000
,,,-0.00008518000,3.76000,0.32800
,,,-0.00008516000,3.76000,0.33600
,,,-0.00008513999,3.76000,0.32000
,,,-0.00008511999,3.76000,0.34400
,,,-0.00008510000,3.76000,0.32800
,,,-0.00008508000,3.76000,0.32000
,,,-0.00008506000,3.76000,0.32000
,,,-0.00008503999,3.76000,0.32800
,,,-0.00008502000,3.68000,0.32800
,,,-0.00008500000,3.68000,0.33600
,,,-0.00008498000,3.68000,0.32800
,,,-0.00008495999,3.68000,0.33600
,,,-0.00008493999,3.68000,0.32800
,,,-0.00008492000,3.68000,0.32800
,,,-0.00008490000,3.68000,0.32800
,,,-0.00008488000,3.68000,0.32000
,,,-0.00008485999,3.68000,0.32000
,,,-0.00008484000,3.68000,0.32000
,,,-0.00008482000,3.68000,0.32800
,,,-0.00008480000,3.60000,0.31200
,,,-0.00008477999,3.60000,0.32000
,,,-0.00008475999,3.68000,0.31200
,,,-0.00008473999,3.68000,0.32800
,,,-0.00008471999,3.60000,0.32000
,,,-0.00008470000,3.60000,0.32000
,,,-0.00008467999,3.60000,0.32000
,,,-0.00008465999,3.60000,0.31200
,,,-0.00008463999,3.60000,0.31200
,,,-0.00008462000,3.60000,0.32800
,,,-0.00008459999,3.60000,0.31200
,,,-0.00008457999,3.60000,0.32000
,,,-0.00008455999,3.60000,0.31200
,,,-0.00008453999,3.60000,0.32000
,,,-0.00008452000,3.60000,0.31200
,,,-0.00008449999,3.60000,0.31200
,,,-0.00008447999,3.60000,0.31200
,,,-0.00008445999,3.52000,0.31200
,,,-0.00008444000,3.60000,0.31200
,,,-0.00008441999,3.52000,0.32800
,,,-0.00008439999,3.52000,0.31200
,,,-0.00008437999,3.52000,0.31200
,,,-0.00008435999,3.52000,0.31200
,,,-0.00008433999,3.52000,0.32000
,,,-0.00008431999,3.52000,0.31200
,,,-0.00008429999,3.52000,0.31200
,,,-0.00008427999,3.52000,0.31200
,,,-0.00008425999,3.52000,0.31200
,,,-0.00008423999,3.52000,0.31200
,,,-0.00008421999,3.52000,0.31200
,,,-0.00008419999,3.52000,0.31200
,,,-0.00008417999,3.44000,0.31200
,,,-0.00008415999,3.52000,0.31200
,,,-0.00008413999,3.44000,0.31200
,,,-0.00008411999,3.52000,0.31200
,,,-0.00008409999,3.52000,0.30400
,,,-0.00008407999,3.44000,0.30400
,,,-0.00008405999,3.44000,0.31200
,,,-0.00008403999,3.44000,0.31200
,,,-0.00008401999,3.44000,0.31200
,,,-0.00008399999,3.44000,0.31200
,,,-0.00008398000,3.36000,0.29600
,,,-0.00008395999,3.44000,0.30400
,,,-0.00008393999,3.44000,0.30400
,,,-0.00008391999,3.36000,0.29600
,,,-0.00008390000,3.36000,0.30400
,,,-0.00008388000,3.36000,0.29600
,,,-0.00008385999,3.36000,0.30400
,,,-0.00008383999,3.44000,0.29600
,,,-0.00008382000,3.36000,0.30400
,,,-0.00008380000,3.36000,0.30400
,,,-0.00008377999,3.36000,0.30400
,,,-0.00008375999,3.36000,0.29600
,,,-0.00008373999,3.36000,0.29600
,,,-0.00008372000,3.36000,0.29600
,,,-0.00008370000,3.28000,0.29600
,,,-0.00008367999,3.36000,0.28800
,,,-0.00008365999,3.28000,0.28800
,,,-0.00008364000,3.36000,0.29600
,,,-0.00008362000,3.28000,0.29600
,,,-0.00008359999,3.28000,0.28800
,,,-0.00008357999,3.28000,0.28800
,,,-0.00008355999,3.28000,0.28800
,,,-0.00008353999,3.28000,0.28800
,,,-0.00008351999,3.20000,0.28000
,,,-0.00008349999,3.28000,0.28800
,,,-0.00008347999,3.28000,0.28000
,,,-0.00008345999,3.28000,0.29600
,,,-0.00008343999,3.28000,0.28800
,,,-0.00008341999,3.20000,0.28800
,,,-0.00008339999,3.20000,0.28000
,,,-0.00008337999,3.20000,0.28800
,,,-0.00008335999,3.20000,0.28800
,,,-0.00008333999,3.20000,0.28800
,,,-0.00008331999,3.20000,0.28000
,,,-0.00008329999,3.20000,0.28800
,,,-0.00008327999,3.20000,0.28000
,,,-0.00008325999,3.20000,0.28000
,,,-0.00008323999,3.20000,0.28000
,,,-0.00008321999,3.20000,0.28000
,,,-0.00008319999,3.12000,0.28800
,,,-0.00008318000,3.12000,0.27200
,,,-0.00008316000,3.20000,0.28000
,,,-0.00008313999,3.12000,0.28000
,,,-0.00008311999,3.12000,0.28000
,,,-0.00008310000,3.12000,0.28800
,,,-0.00008308000,3.12000,0.28000
,,,-0.00008305999,3.12000,0.27200
,,,-0.00008303999,3.12000,0.27200
,,,-0.00008302000,3.12000,0.27200
,,,-0.00008300000,3.04000,0.27200
,,,-0.00008298000,3.04000,0.27200
,,,-0.00008295999,3.04000,0.28000
,,,-0.00008293999,3.04000,0.27200
,,,-0.00008292000,3.04000,0.26400
,,,-0.00008290000,3.04000,0.26400
,,,-0.00008287999,3.04000,0.25600
,,,-0.00008285999,3.04000,0.27200
,,,-0.00008284000,3.04000,0.26400
,,,-0.00008282000,3.04000,0.27200
,,,-0.00008280000,3.04000,0.26400
,,,-0.00008277999,2.96000,0.25600
,,,-0.00008275999,3.04000,0.26400
,,,-0.00008273999,2.96000,0.26400
,,,-0.00008271999,2.96000,0.25600
,,,-0.00008269999,2.96000,0.26400
,,,-0.00008267999,2.96000,0.26400
,,,-0.00008265999,2.96000,0.26400
,,,-0.00008263999,2.96000,0.26400
,,,-0.00008262000,2.88000,0.25600
,,,-0.00008259999,2.88000,0.25600
,,,-0.00008257999,2.88000,0.25600
,,,-0.00008255999,2.96000,0.25600
,,,-0.00008253999,2.88000,0.25600
,,,-0.00008251999,2.88000,0.25600
,,,-0.00008249999,2.88000,0.25600
,,,-0.00008247999,2.88000,0.24800
,,,-0.00008245999,2.88000,0.24800
,,,-0.00008244000,2.88000,0.25600
,,,-0.00008241999,2.88000,0.25600
,,,-0.00008239999,2.80000,0.25600
,,,-0.00008238000,2.80000,0.24800
,,,-0.00008236000,2.80000,0.24800
,,,-0.00008234000,2.80000,0.24800
,,,-0.00008231999,2.80000,0.25600
,,,-0.00008230000,2.80000,0.24000
,,,-0.00008228000,2.80000,0.24000
,,,-0.00008226000,2.80000,0.24800
,,,-0.00008223999,2.80000,0.24000
,,,-0.00008222000,2.80000,0.24800
,,,-0.00008220000,2.80000,0.24800
,,,-0.00008218000,2.80000,0.24000
,,,-0.00008216000,2.72000,0.24000
,,,-0.00008213999,2.72000,0.24000
,,,-0.00008212000,2.72000,0.24000
,,,-0.00008210000,2.72000,0.23200
,,,-0.00008208000,2.72000,0.24000
,,,-0.00008205999,2.72000,0.24000
,,,-0.00008204000,2.72000,0.24000
,,,-0.00008202000,2.72000,0.24000
,,,-0.00008200000,2.64000,0.24000
,,,-0.00008198000,2.64000,0.24800
,,,-0.00008195999,2.64000,0.24000
,,,-0.00008193999,2.64000,0.22400
,,,-0.00008191999,2.64000,0.24000
,,,-0.00008190000,2.64000,0.23200
,,,-0.00008187999,2.64000,0.23200
,,,-0.00008185999,2.64000,0.23200
,,,-0.00008183999,2.64000,0.22400
,,,-0.00008182000,2.56000,0.24000
,,,-0.00008180000,2.64000,0.23200
,,,-0.00008177999,2.56000,0.23200
,,,-0.00008175999,2.56000,0.22400
,,,-0.00008173999,2.56000,0.22400
,,,-0.00008172000,2.56000,0.21600
,,,-0.00008169999,2.56000,0.22400
,,,-0.00008167999,2.56000,0.21600
,,,-0.00008165999,2.56000,0.22400
,,,-0.00008164000,2.56000,0.22400
,,,-0.00008162000,2.56000,0.21600
,,,-0.00008159999,2.48000,0.22400
,,,-0.00008157999,2.48000,0.21600
,,,-0.00008155999,2.56000,0.21600
,,,-0.00008153999,2.48000,0.21600
,,,-0.00008151999,2.48000,0.21600
,,,-0.00008149999,2.48000,0.20800
,,,-0.00008147999,2.48000,0.20800
,,,-0.00008145999,2.48000,0.21600
,,,-0.00008143999,2.48000,0.21600
,,,-0.00008141999,2.48000,0.20000
,,,-0.00008139999,2.40000,0.20800
,,,-0.00008137999,2.40000,0.20000
,,,-0.00008135999,2.40000,0.20800
,,,-0.00008133999,2.40000,0.20800
,,,-0.00008131999,2.40000,0.21600
,,,-0.00008129999,2.40000,0.20800
,,,-0.00008127999,2.40000,0.20800
,,,-0.00008125999,2.32000,0.20800
,,,-0.00008123999,2.32000,0.20800
,,,-0.00008121999,2.32000,0.20000
,,,-0.00008119999,2.32000,0.20800
,,,-0.00008118000,2.32000,0.20000
,,,-0.00008115999,2.24000,0.20000
,,,-0.00008113999,2.32000,0.20000
,,,-0.00008111999,2.32000,0.20000
,,,-0.00008110000,2.24000,0.20000
,,,-0.00008108000,2.32000,0.20800
,,,-0.00008105999,2.24000,0.20000
,,,-0.00008103999,2.24000,0.20000
,,,-0.00008102000,2.24000,0.21600
,,,-0.00008100000,2.24000,0.20800
,,,-0.00008097999,2.24000,0.19200
,,,-0.00008095999,2.24000,0.20000
,,,-0.00008093999,2.24000,0.20000
,,,-0.00008092000,2.16000,0.19200
,,,-0.00008090000,2.24000,0.19200
,,,-0.00008087999,2.24000,0.19200
,,,-0.00008085999,2.16000,0.19200
,,,-0.00008084000,2.16000,0.19200
,,,-0.00008082000,2.16000,0.19200
,,,-0.00008079999,2.16000,0.19200
,,,-0.00008077999,2.16000,0.19200
,,,-0.00008075999,2.16000,0.19200
,,,-0.00008073999,2.16000,0.19200
,,,-0.00008071999,2.08000,0.19200
,,,-0.00008069999,2.08000,0.19200
,,,-0.00008067999,2.08000,0.19200
,,,-0.00008065999,2.08000,0.19200
,,,-0.00008063999,2.08000,0.19200
,,,-0.00008062000,2.08000,0.18400
,,,-0.00008059999,2.08000,0.19200
