Oszilloskop Messungen 19.4.23/WA000008.CSV

Record Length,9216,,Source,CH1,CH2
Sample Interval,0.0000001302083,,Second,Volt,Volt
Vertical Units,CH1:V CH2:V,,-0.00092160006,4.16000,0.36000
Vertical Scale,CH1:2.00 CH2:0.20,,-0.00092140000,4.00000,0.36800
Vertical Offset,CH1:0.00 CH2:-0.01600,,-0.00092120000,4.08000,0.37600
Horizontal Units,s,,-0.00092100000,4.08000,0.37600
Horizontal Scale,0.0001000000,,-0.00092080000,4.08000,0.36800
Model Number,WaveAce202,,-0.00092060000,4.00000,0.36800
Serial Number,LCRY2104C00378,,-0.00092040000,4.08000,0.36800
Software Version,2.06.02.11,,-0.00092020000,4.00000,0.36000
,,,-0.00092000000,4.08000,0.36800
,,,-0.00091980000,4.08000,0.36800
,,,-0.00091960000,4.16000,0.36800
,,,-0.00091940000,4.00000,0.36800
,,,-0.00091920000,4.08000,0.36800
,,,-0.00091900000,4.00000,0.37600
,,,-0.00091880000,4.08000,0.36800
,,,-0.00091860000,4.00000,0.36000
,,,-0.00091840000,4.08000,0.37600
,,,-0.00091820000,4.00000,0.36800
,,,-0.00091800000,4.08000,0.36800
,,,-0.00091780000,4.00000,0.36800
,,,-0.00091760000,4.08000,0.36000
,,,-0.00091740000,4.00000,0.35200
,,,-0.00091720000,4.00000,0.36000
,,,-0.00091700000,3.92000,0.36000
,,,-0.00091680000,4.00000,0.36000
,,,-0.00091660000,4.00000,0.35200
,,,-0.00091640000,4.08000,0.36000
,,,-0.00091620000,3.92000,0.35200
,,,-0.00091600000,4.08000,0.35200
,,,-0.00091580006,4.00000,0.36000
,,,-0.00091560006,4.00000,0.35200
,,,-0.00091540006,4.00000,0.36000
,,,-0.00091520006,4.00000,0.36000
,,,-0.00091500006,4.00000,0.35200
,,,-0.00091480006,4.00000,0.35200
,,,-0.00091460006,3.92000,0.35200
,,,-0.00091440006,3.92000,0.35200
,,,-0.00091420006,3.92000,0.35200
,,,-0.00091400006,4.00000,0.35200
,,,-0.00091380006,3.92000,0.34400
,,,-0.00091360000,4.00000,0.34400
,,,-0.00091340000,3.92000,0.35200
,,,-0.00091320000,3.92000,0.35200
,,,-0.00091300000,3.92000,0.34400
,,,-0.00091280000,3.92000,0.35200
,,,-0.00091260000,3.92000,0.35200
,,,-0.00091240000,3.92000,0.33600
,,,-0.00091220000,3.84000,0.34400
,,,-0.00091200000,3.92000,0.34400
,,,-0.00091180000,3.84000,0.34400
,,,-0.00091160000,3.92000,0.34400
,,,-0.00091140000,3.84000,0.35200
,,,-0.00091120000,3.92000,0.35200
,,,-0.00091100000,3.84000,0.34400
,,,-0.00091080000,3.92000,0.35200
,,,-0.00091060000,3.84000,0.34400
,,,-0.00091040000,3.92000,0.33600
,,,-0.00091020000,3.84000,0.34400
,,,-0.00091000000,3.92000,0.34400
,,,-0.00090980000,3.84000,0.34400
,,,-0.00090960000,3.84000,0.33600
,,,-0.00090940000,3.84000,0.34400
,,,-0.00090920000,3.84000,0.34400
,,,-0.00090900000,3.84000,0.36000
,,,-0.00090880000,3.84000,0.35200
,,,-0.00090860000,3.84000,0.35200
,,,-0.00090840000,3.84000,0.34400
,,,-0.00090820000,3.84000,0.35200
,,,-0.00090800000,3.84000,0.34400
,,,-0.00090780006,3.84000,0.35200
,,,-0.00090760006,3.84000,0.35200
,,,-0.00090740006,3.76000,0.35200
,,,-0.00090720006,3.84000,0.34400
,,,-0.00090700006,3.84000,0.34400
,,,-0.00090680006,3.84000,0.33600
,,,-0.00090660006,3.84000,0.34400
,,,-0.00090640006,3.84000,0.34400
,,,-0.00090620006,3.76000,0.34400
,,,-0.00090600000,3.84000,0.33600
,,,-0.00090580000,3.76000,0.33600
,,,-0.00090560000,3.84000,0.33600
,,,-0.00090540000,3.76000,0.34400
,,,-0.00090520000,3.84000,0.34400
,,,-0.00090500000,3.68000,0.34400
,,,-0.00090480000,3.76000,0.33600
,,,-0.00090460000,3.68000,0.33600
,,,-0.00090440000,3.76000,0.33600
,,,-0.00090420000,3.68000,0.33600
,,,-0.00090400000,3.76000,0.33600
,,,-0.00090380000,3.68000,0.32800
,,,-0.00090360000,3.68000,0.33600
,,,-0.00090340000,3.76000,0.33600
,,,-0.00090320000,3.76000,0.33600
,,,-0.00090300000,3.68000,0.32800
,,,-0.00090280000,3.68000,0.32000
,,,-0.00090260000,3.68000,0.33600
,,,-0.00090240000,3.68000,0.32800
,,,-0.00090220000,3.60000,0.32800
,,,-0.00090200000,3.68000,0.33600
,,,-0.00090180000,3.60000,0.32000
,,,-0.00090160000,3.68000,0.32800
,,,-0.00090140000,3.60000,0.32000
,,,-0.00090120000,3.68000,0.32000
,,,-0.00090100000,3.52000,0.32000
,,,-0.00090080000,3.68000,0.32800
,,,-0.00090060000,3.52000,0.32000
,,,-0.00090040000,3.60000,0.32800
,,,-0.00090020000,3.52000,0.32000
,,,-0.00090000000,3.60000,0.32000
,,,-0.00089980006,3.52000,0.31200
,,,-0.00089960006,3.60000,0.32000
,,,-0.00089940006,3.52000,0.32000
,,,-0.00089920006,3.52000,0.31200
,,,-0.00089900006,3.52000,0.32000
,,,-0.00089880006,3.52000,0.31200
,,,-0.00089860006,3.52000,0.31200
,,,-0.00089840000,3.60000,0.31200
,,,-0.00089820000,3.44000,0.31200
,,,-0.00089800000,3.52000,0.31200
,,,-0.00089780000,3.44000,0.31200
,,,-0.00089760000,3.52000,0.31200
,,,-0.00089740000,3.44000,0.31200
,,,-0.00089720000,3.44000,0.31200
,,,-0.00089700000,3.36000,0.31200
,,,-0.00089680000,3.44000,0.30400
,,,-0.00089660000,3.36000,0.30400
,,,-0.00089640000,3.44000,0.29600
,,,-0.00089620000,3.36000,0.29600
,,,-0.00089600000,3.44000,0.30400
,,,-0.00089580000,3.36000,0.29600
,,,-0.00089560000,3.44000,0.30400
,,,-0.00089540000,3.28000,0.29600
,,,-0.00089520000,3.36000,0.29600
,,,-0.00089500000,3.28000,0.29600
,,,-0.00089480000,3.36000,0.29600
,,,-0.00089460000,3.28000,0.29600
,,,-0.00089440000,3.36000,0.28000
,,,-0.00089420000,3.28000,0.28800
,,,-0.00089400000,3.28000,0.28000
,,,-0.00089380000,3.20000,0.28800
,,,-0.00089360000,3.28000,0.28800
,,,-0.00089340000,3.20000,0.28000
,,,-0.00089320000,3.28000,0.28000
,,,-0.00089300000,3.20000,0.28800
,,,-0.00089280000,3.28000,0.28800
,,,-0.00089260000,3.20000,0.28000
,,,-0.00089240000,3.28000,0.28800
,,,-0.00089220000,3.12000,0.28000
,,,-0.00089200000,3.20000,0.28000
,,,-0.00089180006,3.12000,0.27200
,,,-0.00089160006,3.20000,0.28000
,,,-0.00089140006,3.12000,0.27200
,,,-0.00089120006,3.20000,0.27200
,,,-0.00089100006,3.04000,0.26400
,,,-0.00089080000,3.12000,0.27200
,,,-0.00089060000,3.04000,0.27200
,,,-0.00089040000,3.12000,0.27200
,,,-0.00089020000,3.04000,0.27200
,,,-0.00089000000,3.12000,0.27200
,,,-0.00088980000,2.96000,0.26400
,,,-0.00088960000,3.04000,0.27200
,,,-0.00088940000,2.96000,0.27200
,,,-0.00088920000,3.04000,0.26400
,,,-0.00088900000,2.96000,0.27200
,,,-0.00088880000,3.04000,0.27200
,,,-0.00088860000,2.96000,0.27200
,,,-0.00088840000,3.04000,0.26400
,,,-0.00088820000,2.88000,0.26400
,,,-0.00088800000,2.96000,0.26400
,,,-0.00088780000,2.96000,0.27200
,,,-0.00088760000,2.96000,0.26400
,,,-0.00088740000,2.88000,0.27200
,,,-0.00088720000,2.96000,0.26400
,,,-0.00088700000,2.88000,0.25600
,,,-0.00088680000,2.88000,0.26400
,,,-0.00088660000,2.80000,0.25600
,,,-0.00088640000,2.88000,0.25600
,,,-0.00088620000,2.80000,0.26400
,,,-0.00088600000,2.88000,0.25600
,,,-0.00088580000,2.80000,0.25600
,,,-0.00088560000,2.88000,0.24800
,,,-0.00088540000,2.72000,0.24800
,,,-0.00088520000,2.80000,0.25600
,,,-0.00088500000,2.72000,0.25600
,,,-0.00088480000,2.80000,0.24800
,,,-0.00088460000,2.72000,0.24800
,,,-0.00088440000,2.80000,0.24000
,,,-0.00088420000,2.64000,0.24800
,,,-0.00088400000,2.80000,0.25600
,,,-0.00088380006,2.64000,0.24800
,,,-0.00088360006,2.72000,0.24800
,,,-0.00088340006,2.64000,0.24800
,,,-0.00088320000,2.64000,0.24000
,,,-0.00088300000,2.56000,0.24800
,,,-0.00088280000,2.64000,0.24000
,,,-0.00088260000,2.56000,0.23200
,,,-0.00088240000,2.64000,0.24000
,,,-0.00088220000,2.56000,0.24000
,,,-0.00088200000,2.64000,0.23200
,,,-0.00088180000,2.56000,0.24000
,,,-0.00088160000,2.56000,0.24000
,,,-0.00088140000,2.48000,0.23200
,,,-0.00088120000,2.56000,0.23200
,,,-0.00088100000,2.48000,0.23200
,,,-0.00088080000,2.56000,0.22400
,,,-0.00088060000,2.48000,0.23200
,,,-0.00088040000,2.48000,0.23200
,,,-0.00088020000,2.48000,0.22400
,,,-0.00088000000,2.48000,0.23200
,,,-0.00087980000,2.40000,0.22400
,,,-0.00087960000,2.48000,0.22400
,,,-0.00087940000,2.40000,0.23200
,,,-0.00087920000,2.48000,0.21600
,,,-0.00087900000,2.32000,0.20800
,,,-0.00087880000,2.40000,0.21600
,,,-0.00087860000,2.32000,0.20800
,,,-0.00087840000,2.40000,0.21600
,,,-0.00087820000,2.32000,0.20800
,,,-0.00087800000,2.40000,0.20800
,,,-0.00087780000,2.24000,0.20800
,,,-0.00087760000,2.32000,0.20800
,,,-0.00087740000,2.24000,0.20000
,,,-0.00087720000,2.32000,0.20800
,,,-0.00087700000,2.24000,0.20000
,,,-0.00087680000,2.24000,0.20000
,,,-0.00087660000,2.24000,0.20000
,,,-0.00087640000,2.24000,0.19200
,,,-0.00087620000,2.24000,0.20000
,,,-0.00087600000,2.24000,0.20000
,,,-0.00087580006,2.16000,0.19200
,,,-0.00087560006,2.16000,0.19200
,,,-0.00087540000,2.16000,0.19200
,,,-0.00087520000,2.16000,0.19200
,,,-0.00087500000,2.08000,0.18400
,,,-0.00087480000,2.16000,0.18400
,,,-0.00087460000,2.08000,0.19200
,,,-0.00087440000,2.08000,0.19200
,,,-0.00087420000,2.00000,0.18400
,,,-0.00087400000,2.08000,0.19200
,,,-0.00087380000,2.00000,0.18400
,,,-0.00087360000,2.08000,0.18400
,,,-0.00087340000,2.00000,0.17600
,,,-0.00087320000,2.00000,0.17600
,,,-0.00087300000,2.00000,0.16000
,,,-0.00087280000,2.00000,0.16800
,,,-0.00087260000,1.92000,0.17600
,,,-0.00087240000,1.92000,0.16800
,,,-0.00087220000,1.92000,0.17600
,,,-0.00087200000,2.00000,0.17600
,,,-0.00087180000,1.92000,0.16800
,,,-0.00087160000,1.92000,0.16000
,,,-0.00087140000,1.84000,0.16800
,,,-0.00087120000,1.84000,0.16800
,,,-0.00087100000,1.84000,0.16000
,,,-0.00087080000,1.92000,0.16000
,,,-0.00087060000,1.84000,0.16800
,,,-0.00087040000,1.84000,0.16000
,,,-0.00087020000,1.76000,0.15200
,,,-0.00087000000,1.84000,0.16800
,,,-0.00086980000,1.68000,0.16000
,,,-0.00086960000,1.76000,0.16000
,,,-0.00086940000,1.68000,0.16000
,,,-0.00086920000,1.76000,0.16800
,,,-0.00086900000,1.68000,0.16800
,,,-0.00086880000,1.68000,0.15200
,,,-0.00086860000,1.60000,0.15200
,,,-0.00086840000,1.68000,0.16000
,,,-0.00086820000,1.60000,0.16000
,,,-0.00086800000,1.68000,0.16000
,,,-0.00086780000,1.52000,0.16000
,,,-0.00086760000,1.60000,0.15200
,,,-0.00086740000,1.60000,0.16000
,,,-0.00086720000,1.60000,0.15200
,,,-0.00086700000,1.52000,0.15200
,,,-0.00086680000,1.60000,0.14400
,,,-0.00086660000,1.52000,0.15200
,,,-0.00086640000,1.52000,0.14400
,,,-0.00086620000,1.44000,0.14400
,,,-0.00086600000,1.52000,0.15200
,,,-0.00086580000,1.36000,0.14400
,,,-0.00086560000,1.44000,0.14400
,,,-0.00086540000,1.36000,0.14400
,,,-0.00086520000,1.44000,0.12800
,,,-0.00086500000,1.36000,0.14400
,,,-0.00086480000,1.36000,0.12800
,,,-0.00086460000,1.36000,0.13600
,,,-0.00086440000,1.36000,0.13600
,,,-0.00086420000,1.28000,0.13600
,,,-0.00086400000,1.36000,0.12000
,,,-0.00086380000,1.20000,0.12000
,,,-0.00086360000,1.28000,0.12000
,,,-0.00086340000,1.28000,0.12800
,,,-0.00086320000,1.28000,0.12800
,,,-0.00086300000,1.20000,0.12000
,,,-0.00086280000,1.28000,0.12000
,,,-0.00086260000,1.20000,0.12000
,,,-0.00086240000,1.28000,0.11200
,,,-0.00086220000,1.20000,0.12800
,,,-0.00086200000,1.20000,0.11200
,,,-0.00086180000,1.04000,0.11200
,,,-0.00086160000,1.12000,0.12000
,,,-0.00086140000,1.12000,0.11200
,,,-0.00086120000,1.20000,0.10400
,,,-0.00086100000,1.04000,0.10400
,,,-0.00086080000,1.12000,0.11200
,,,-0.00086060000,1.04000,0.09600
,,,-0.00086040000,1.04000,0.11200
,,,-0.00086020000,1.04000,0.10400
,,,-0.00086000000,1.04000,0.11200
,,,-0.00085980000,0.96000,0.11200
,,,-0.00085960000,0.96000,0.09600
,,,-0.00085940000,0.96000,0.10400
,,,-0.00085920000,0.96000,0.09600
,,,-0.00085900000,0.96000,0.09600
,,,-0.00085880000,0.96000,0.08800
,,,-0.00085860000,0.88000,0.08800
,,,-0.00085840000,0.96000,0.08800
,,,-0.00085820000,0.88000,0.08000
,,,-0.00085800000,0.88000,0.08800
,,,-0.00085780000,0.80000,0.08000
,,,-0.00085760000,0.88000,0.08000
,,,-0.00085740000,0.80000,0.07200
,,,-0.00085720000,0.80000,0.08000
,,,-0.00085700000,0.80000,0.08000
,,,-0.00085680000,0.80000,0.08000
,,,-0.00085660000,0.72000,0.06400
,,,-0.00085640000,0.72000,0.06400
,,,-0.00085620000,0.72000,0.06400
,,,-0.00085600000,0.72000,0.06400
,,,-0.00085580006,0.64000,0.06400
,,,-0.00085560006,0.72000,0.06400
,,,-0.00085540006,0.56000,0.06400
,,,-0.00085520006,0.72000,0.06400
,,,-0.00085500006,0.64000,0.06400
,,,-0.00085480006,0.64000,0.05600
,,,-0.00085460006,0.56000,0.06400
,,,-0.00085440006,0.64000,0.04800
,,,-0.00085420006,0.56000,0.05600
,,,-0.00085400006,0.56000,0.04800
,,,-0.00085380006,0.48000,0.04000
,,,-0.00085360006,0.56000,0.04800
,,,-0.00085340006,0.48000,0.04800
,,,-0.00085320006,0.56000,0.04000
,,,-0.00085300006,0.40000,0.04000
,,,-0.00085280006,0.48000,0.04000
,,,-0.00085260000,0.40000,0.04800
,,,-0.00085240000,0.48000,0.04800
,,,-0.00085220000,0.40000,0.04000
,,,-0.00085200000,0.40000,0.03200
,,,-0.00085180000,0.32000,0.03200
,,,-0.00085160000,0.40000,0.03200
,,,-0.00085140000,0.32000,0.02400
,,,-0.00085120000,0.32000,0.02400
,,,-0.00085100000,0.32000,0.02400
,,,-0.00085080000,0.24000,0.02400
,,,-0.00085060000,0.24000,0.02400
,,,-0.00085040000,0.32000,0.03200
,,,-0.00085020000,0.24000,0.03200
,,,-0.00085000000,0.24000,0.02400
,,,-0.00084980000,0.16000,0.02400
,,,-0.00084960000,0.24000,0.02400
,,,-0.00084940000,0.16000,0.01600
,,,-0.00084920000,0.24000,0.02400
,,,-0.00084900000,0.08000,0.02400
,,,-0.00084880000,0.16000,0.00800
,,,-0.00084860000,0.08000,0.01600
,,,-0.00084840000,0.16000,0.02400
,,,-0.00084820000,0.08000,0.02400
,,,-0.00084800000,0.08000,0.01600
,,,-0.00084780006,0.00,0.01600
,,,-0.00084760006,0.00,0.00800
,,,-0.00084740006,-0.08000,0.00800
,,,-0.00084720006,0.00,0.01600
,,,-0.00084700006,-0.08000,0.00800
,,,-0.00084680006,0.00,0.00800
,,,-0.00084660006,-0.08000,0.00800
,,,-0.00084640006,-0.08000,0.00
,,,-0.00084620006,-0.08000,0.00800
,,,-0.00084600006,-0.08000,0.00800
,,,-0.00084580006,-0.08000,0.00800
,,,-0.00084560006,-0.08000,0.00800
,,,-0.00084540006,-0.16000,0.00
,,,-0.00084520006,-0.08000,0.00
,,,-0.00084500006,-0.16000,0.00800
,,,-0.00084480000,-0.08000,0.00
,,,-0.00084460000,-0.16000,-0.00800
,,,-0.00084440000,-0.08000,0.00800
,,,-0.00084420000,-0.24000,0.00
,,,-0.00084400000,-0.16000,0.00
,,,-0.00084380000,-0.24000,-0.01600
,,,-0.00084360000,-0.16000,-0.00800
,,,-0.00084340000,-0.24000,-0.00800
,,,-0.00084320000,-0.24000,-0.00800
,,,-0.00084300000,-0.32000,-0.02400
,,,-0.00084280000,-0.32000,-0.01600
,,,-0.00084260000,-0.32000,-0.01600
,,,-0.00084240000,-0.32000,-0.02400
,,,-0.00084220000,-0.40000,-0.01600
,,,-0.00084200000,-0.32000,-0.02400
,,,-0.00084180000,-0.40000,-0.02400
,,,-0.00084160000,-0.32000,-0.03200
,,,-0.00084140000,-0.48000,-0.03200
,,,-0.00084120000,-0.40000,-0.04000
,,,-0.00084100000,-0.48000,-0.02400
,,,-0.00084080000,-0.48000,-0.04000
,,,-0.00084060000,-0.56000,-0.03200
,,,-0.00084040000,-0.48000,-0.03200
,,,-0.00084020000,-0.56000,-0.03200
,,,-0.00084000000,-0.48000,-0.04000
,,,-0.00083980006,-0.56000,-0.04800
,,,-0.00083960006,-0.56000,-0.04000
,,,-0.00083940006,-0.64000,-0.04800
,,,-0.00083920006,-0.56000,-0.04000
,,,-0.00083900006,-0.64000,-0.04800
,,,-0.00083880006,-0.64000,-0.05600
,,,-0.00083860006,-0.72000,-0.04800
,,,-0.00083840006,-0.56000,-0.05600
,,,-0.00083820006,-0.72000,-0.05600
,,,-0.00083800006,-0.72000,-0.05600
,,,-0.00083780006,-0.72000,-0.05600
,,,-0.00083760006,-0.72000,-0.05600
,,,-0.00083740006,-0.72000,-0.05600
,,,-0.00083720000,-0.72000,-0.05600
,,,-0.00083700000,-0.80000,-0.05600
,,,-0.00083680000,-0.80000,-0.05600
,,,-0.00083660000,-0.88000,-0.06400
,,,-0.00083640000,-0.80000,-0.06400
,,,-0.00083620000,-0.88000,-0.07200
,,,-0.00083600000,-0.88000,-0.08000
,,,-0.00083580000,-0.88000,-0.08000
,,,-0.00083560000,-0.88000,-0.07200
,,,-0.00083540000,-0.96000,-0.07200
,,,-0.00083520000,-0.88000,-0.08000
,,,-0.00083500000,-0.96000,-0.07200
,,,-0.00083480000,-0.96000,-0.08000
,,,-0.00083460000,-0.96000,-0.08800
,,,-0.00083440000,-0.96000,-0.08000
,,,-0.00083420000,-1.04000,-0.08000
,,,-0.00083400000,-0.96000,-0.08800
,,,-0.00083380000,-1.04000,-0.08800
,,,-0.00083360000,-1.04000,-0.08800
,,,-0.00083340000,-1.12000,-0.08800
,,,-0.00083320000,-1.04000,-0.08800
,,,-0.00083300000,-1.12000,-0.09600
,,,-0.00083280000,-1.12000,-0.09600
,,,-0.00083260000,-1.20000,-0.09600
,,,-0.00083240000,-1.12000,-0.08800
,,,-0.00083220000,-1.20000,-0.09600
,,,-0.00083200000,-1.12000,-0.09600
,,,-0.00083180006,-1.20000,-0.09600
,,,-0.00083160006,-1.20000,-0.09600
,,,-0.00083140006,-1.28000,-0.10400
,,,-0.00083120006,-1.20000,-0.10400
,,,-0.00083100006,-1.36000,-0.10400
,,,-0.00083080006,-1.20000,-0.10400
,,,-0.00083060006,-1.36000,-0.11200
,,,-0.00083040006,-1.36000,-0.11200
,,,-0.00083020006,-1.36000,-0.10400
,,,-0.00083000006,-1.28000,-0.11200
,,,-0.00082980006,-1.36000,-0.10400
,,,-0.00082960000,-1.36000,-0.11200
,,,-0.00082940000,-1.44000,-0.10400
,,,-0.00082920000,-1.36000,-0.11200
,,,-0.00082900000,-1.44000,-0.10400
,,,-0.00082880000,-1.44000,-0.11200
,,,-0.00082860000,-1.44000,-0.11200
,,,-0.00082840000,-1.44000,-0.11200
,,,-0.00082820000,-1.52000,-0.12000
,,,-0.00082800000,-1.44000,-0.11200
,,,-0.00082780000,-1.52000,-0.12000
,,,-0.00082760000,-1.52000,-0.11200
,,,-0.00082740000,-1.60000,-0.12000
,,,-0.00082720000,-1.52000,-0.12800
,,,-0.00082700000,-1.60000,-0.12000
,,,-0.00082680000,-1.60000,-0.12800
,,,-0.00082660000,-1.68000,-0.12000
,,,-0.00082640000,-1.60000,-0.12800
,,,-0.00082620000,-1.76000,-0.13600
,,,-0.00082600000,-1.60000,-0.13600
,,,-0.00082580000,-1.76000,-0.13600
,,,-0.00082560000,-1.68000,-0.12000
,,,-0.00082540000,-1.76000,-0.13600
,,,-0.00082520000,-1.68000,-0.12800
,,,-0.00082500000,-1.76000,-0.13600
,,,-0.00082480000,-1.76000,-0.13600
,,,-0.00082460000,-1.84000,-0.13600
,,,-0.00082440000,-1.68000,-0.13600
,,,-0.00082420000,-1.84000,-0.14400
,,,-0.00082400000,-1.76000,-0.14400
,,,-0.00082380006,-1.92000,-0.14400
,,,-0.00082360006,-1.84000,-0.14400
,,,-0.00082340006,-1.92000,-0.14400
,,,-0.00082320006,-1.84000,-0.14400
,,,-0.00082300006,-1.92000,-0.14400
,,,-0.00082280006,-1.84000,-0.15200
,,,-0.00082260006,-2.00000,-0.14400
,,,-0.00082240006,-1.92000,-0.16000
,,,-0.00082220006,-2.00000,-0.16000
,,,-0.00082200000,-1.92000,-0.15200
,,,-0.00082180000,-2.00000,-0.16000
,,,-0.00082160000,-2.00000,-0.16000
,,,-0.00082140000,-2.08000,-0.16800
,,,-0.00082120000,-2.00000,-0.16800
,,,-0.00082100000,-2.08000,-0.16000
,,,-0.00082080000,-2.00000,-0.16800
,,,-0.00082060000,-2.08000,-0.17600
,,,-0.00082040000,-2.08000,-0.16800
,,,-0.00082020000,-2.16000,-0.16800
,,,-0.00082000000,-2.08000,-0.16800
,,,-0.00081980000,-2.16000,-0.17600
,,,-0.00081960000,-2.16000,-0.16800
,,,-0.00081940000,-2.24000,-0.17600
,,,-0.00081920000,-2.16000,-0.17600
,,,-0.00081900000,-2.24000,-0.17600
,,,-0.00081880000,-2.16000,-0.17600
,,,-0.00081860000,-2.24000,-0.18400
,,,-0.00081840000,-2.24000,-0.17600
,,,-0.00081820000,-2.32000,-0.18400
,,,-0.00081800000,-2.24000,-0.18400
,,,-0.00081780000,-2.32000,-0.18400
,,,-0.00081760000,-2.24000,-0.18400
,,,-0.00081740000,-2.40000,-0.20000
,,,-0.00081720000,-2.32000,-0.18400
,,,-0.00081700000,-2.40000,-0.19200
,,,-0.00081680000,-2.32000,-0.19200
,,,-0.00081660000,-2.40000,-0.19200
,,,-0.00081640000,-2.32000,-0.20000
,,,-0.00081620000,-2.40000,-0.19200
,,,-0.00081600000,-2.40000,-0.19200
,,,-0.00081580006,-2.40000,-0.20000
,,,-0.00081560006,-2.40000,-0.20800
,,,-0.00081540006,-2.48000,-0.20800
,,,-0.00081520006,-2.40000,-0.20800
,,,-0.00081500006,-2.48000,-0.20800
,,,-0.00081480006,-2.48000,-0.20800
,,,-0.00081460006,-2.56000,-0.21600
,,,-0.00081440000,-2.48000,-0.21600
,,,-0.00081420000,-2.56000,-0.21600
,,,-0.00081400000,-2.48000,-0.20800
,,,-0.00081380000,-2.56000,-0.21600
,,,-0.00081360000,-2.56000,-0.20800
,,,-0.00081340000,-2.64000,-0.22400
,,,-0.00081320000,-2.64000,-0.21600
,,,-0.00081300000,-2.72000,-0.21600
,,,-0.00081280000,-2.64000,-0.21600
,,,-0.00081260000,-2.72000,-0.22400
,,,-0.00081240000,-2.64000,-0.21600
,,,-0.00081220000,-2.72000,-0.21600
,,,-0.00081200000,-2.64000,-0.22400
,,,-0.00081180000,-2.72000,-0.23200
,,,-0.00081160000,-2.64000,-0.21600
,,,-0.00081140000,-2.80000,-0.22400
,,,-0.00081120000,-2.72000,-0.23200
,,,-0.00081100000,-2.80000,-0.22400
,,,-0.00081080000,-2.72000,-0.21600
,,,-0.00081060000,-2.80000,-0.23200
,,,-0.00081040000,-2.72000,-0.23200
,,,-0.00081020000,-2.80000,-0.22400
,,,-0.00081000000,-2.80000,-0.23200
,,,-0.00080980000,-2.88000,-0.23200
,,,-0.00080960000,-2.80000,-0.23200
,,,-0.00080940000,-2.96000,-0.23200
,,,-0.00080920000,-2.80000,-0.22400
,,,-0.00080900000,-2.88000,-0.23200
,,,-0.00080880000,-2.88000,-0.23200
,,,-0.00080860000,-2.96000,-0.23200
,,,-0.00080840000,-2.88000,-0.24000
,,,-0.00080820000,-2.96000,-0.24000
,,,-0.00080800000,-2.88000,-0.24000
